<?xml version="1.0" encoding="UTF-8"?>
<dia:diagram xmlns:dia="http://www.lysator.liu.se/~alla/dia/">
  <dia:diagramdata>
    <dia:attribute name="background">
      <dia:color val="#ffffff"/>
    </dia:attribute>
    <dia:attribute name="pagebreak">
      <dia:color val="#000099"/>
    </dia:attribute>
    <dia:attribute name="paper">
      <dia:composite type="paper">
        <dia:attribute name="name">
          <dia:string>#A4#</dia:string>
        </dia:attribute>
        <dia:attribute name="tmargin">
          <dia:real val="2.8222000598907471"/>
        </dia:attribute>
        <dia:attribute name="bmargin">
          <dia:real val="2.8222000598907471"/>
        </dia:attribute>
        <dia:attribute name="lmargin">
          <dia:real val="2.8222000598907471"/>
        </dia:attribute>
        <dia:attribute name="rmargin">
          <dia:real val="2.8222000598907471"/>
        </dia:attribute>
        <dia:attribute name="is_portrait">
          <dia:boolean val="true"/>
        </dia:attribute>
        <dia:attribute name="scaling">
          <dia:real val="1"/>
        </dia:attribute>
        <dia:attribute name="fitto">
          <dia:boolean val="false"/>
        </dia:attribute>
      </dia:composite>
    </dia:attribute>
    <dia:attribute name="grid">
      <dia:composite type="grid">
        <dia:attribute name="width_x">
          <dia:real val="1"/>
        </dia:attribute>
        <dia:attribute name="width_y">
          <dia:real val="1"/>
        </dia:attribute>
        <dia:attribute name="visible_x">
          <dia:int val="1"/>
        </dia:attribute>
        <dia:attribute name="visible_y">
          <dia:int val="1"/>
        </dia:attribute>
        <dia:composite type="color"/>
      </dia:composite>
    </dia:attribute>
    <dia:attribute name="color">
      <dia:color val="#d8e5e5"/>
    </dia:attribute>
    <dia:attribute name="guides">
      <dia:composite type="guides">
        <dia:attribute name="hguides"/>
        <dia:attribute name="vguides"/>
      </dia:composite>
    </dia:attribute>
  </dia:diagramdata>
  <dia:layer name="Background" visible="true">
    <dia:object type="Standard - Box" version="0" id="O0">
      <dia:attribute name="obj_pos">
        <dia:point val="13,13"/>
      </dia:attribute>
      <dia:attribute name="obj_bb">
        <dia:rectangle val="12.95,12.95;36.05,33.05"/>
      </dia:attribute>
      <dia:attribute name="elem_corner">
        <dia:point val="13,13"/>
      </dia:attribute>
      <dia:attribute name="elem_width">
        <dia:real val="23"/>
      </dia:attribute>
      <dia:attribute name="elem_height">
        <dia:real val="20"/>
      </dia:attribute>
      <dia:attribute name="border_color">
        <dia:color val="#525252"/>
      </dia:attribute>
      <dia:attribute name="show_background">
        <dia:boolean val="false"/>
      </dia:attribute>
      <dia:attribute name="line_style">
        <dia:enum val="4"/>
      </dia:attribute>
      <dia:attribute name="corner_radius">
        <dia:real val="1"/>
      </dia:attribute>
    </dia:object>
    <dia:object type="Standard - Box" version="0" id="O1">
      <dia:attribute name="obj_pos">
        <dia:point val="27,24"/>
      </dia:attribute>
      <dia:attribute name="obj_bb">
        <dia:rectangle val="26.95,23.95;34.65,32.795"/>
      </dia:attribute>
      <dia:attribute name="elem_corner">
        <dia:point val="27,24"/>
      </dia:attribute>
      <dia:attribute name="elem_width">
        <dia:real val="7.6000000000000014"/>
      </dia:attribute>
      <dia:attribute name="elem_height">
        <dia:real val="8.745000000000001"/>
      </dia:attribute>
      <dia:attribute name="border_color">
        <dia:color val="#525252"/>
      </dia:attribute>
      <dia:attribute name="show_background">
        <dia:boolean val="false"/>
      </dia:attribute>
      <dia:attribute name="line_style">
        <dia:enum val="4"/>
      </dia:attribute>
      <dia:attribute name="corner_radius">
        <dia:real val="1"/>
      </dia:attribute>
    </dia:object>
    <dia:group>
      <dia:object type="Standard - Box" version="0" id="O2">
        <dia:attribute name="obj_pos">
          <dia:point val="14,15"/>
        </dia:attribute>
        <dia:attribute name="obj_bb">
          <dia:rectangle val="13.95,14.95;20.1,19.65"/>
        </dia:attribute>
        <dia:attribute name="elem_corner">
          <dia:point val="14,15"/>
        </dia:attribute>
        <dia:attribute name="elem_width">
          <dia:real val="6.0500000000000007"/>
        </dia:attribute>
        <dia:attribute name="elem_height">
          <dia:real val="4.6000000000000014"/>
        </dia:attribute>
        <dia:attribute name="show_background">
          <dia:boolean val="true"/>
        </dia:attribute>
      </dia:object>
      <dia:object type="Standard - Text" version="1" id="O3">
        <dia:attribute name="obj_pos">
          <dia:point val="15.025,16.775"/>
        </dia:attribute>
        <dia:attribute name="obj_bb">
          <dia:rectangle val="15.025,16.225;19.025,17.975"/>
        </dia:attribute>
        <dia:attribute name="text">
          <dia:composite type="text">
            <dia:attribute name="string">
              <dia:string>#   libexcom
main module#</dia:string>
            </dia:attribute>
            <dia:attribute name="font">
              <dia:font family="sans" style="0" name="Helvetica"/>
            </dia:attribute>
            <dia:attribute name="height">
              <dia:real val="0.80000000000000004"/>
            </dia:attribute>
            <dia:attribute name="pos">
              <dia:point val="15.025,16.775"/>
            </dia:attribute>
            <dia:attribute name="color">
              <dia:color val="#000000"/>
            </dia:attribute>
            <dia:attribute name="alignment">
              <dia:enum val="0"/>
            </dia:attribute>
          </dia:composite>
        </dia:attribute>
        <dia:attribute name="valign">
          <dia:enum val="3"/>
        </dia:attribute>
      </dia:object>
    </dia:group>
    <dia:group>
      <dia:object type="Standard - Box" version="0" id="O4">
        <dia:attribute name="obj_pos">
          <dia:point val="14,23"/>
        </dia:attribute>
        <dia:attribute name="obj_bb">
          <dia:rectangle val="13.95,22.95;19.05,25.7"/>
        </dia:attribute>
        <dia:attribute name="elem_corner">
          <dia:point val="14,23"/>
        </dia:attribute>
        <dia:attribute name="elem_width">
          <dia:real val="5"/>
        </dia:attribute>
        <dia:attribute name="elem_height">
          <dia:real val="2.6500000000000021"/>
        </dia:attribute>
        <dia:attribute name="show_background">
          <dia:boolean val="true"/>
        </dia:attribute>
      </dia:object>
      <dia:object type="Standard - Text" version="1" id="O5">
        <dia:attribute name="obj_pos">
          <dia:point val="14.75,24.6"/>
        </dia:attribute>
        <dia:attribute name="obj_bb">
          <dia:rectangle val="14.75,24.05;18.05,25"/>
        </dia:attribute>
        <dia:attribute name="text">
          <dia:composite type="text">
            <dia:attribute name="string">
              <dia:string>#I/O module#</dia:string>
            </dia:attribute>
            <dia:attribute name="font">
              <dia:font family="sans" style="0" name="Helvetica"/>
            </dia:attribute>
            <dia:attribute name="height">
              <dia:real val="0.80000000000000004"/>
            </dia:attribute>
            <dia:attribute name="pos">
              <dia:point val="14.75,24.6"/>
            </dia:attribute>
            <dia:attribute name="color">
              <dia:color val="#000000"/>
            </dia:attribute>
            <dia:attribute name="alignment">
              <dia:enum val="0"/>
            </dia:attribute>
          </dia:composite>
        </dia:attribute>
        <dia:attribute name="valign">
          <dia:enum val="3"/>
        </dia:attribute>
      </dia:object>
    </dia:group>
    <dia:group>
      <dia:object type="Standard - Box" version="0" id="O6">
        <dia:attribute name="obj_pos">
          <dia:point val="28,24.745"/>
        </dia:attribute>
        <dia:attribute name="obj_bb">
          <dia:rectangle val="27.95,24.695;32,27.095"/>
        </dia:attribute>
        <dia:attribute name="elem_corner">
          <dia:point val="28,24.745"/>
        </dia:attribute>
        <dia:attribute name="elem_width">
          <dia:real val="3.9499999999999993"/>
        </dia:attribute>
        <dia:attribute name="elem_height">
          <dia:real val="2.2999999999999972"/>
        </dia:attribute>
        <dia:attribute name="show_background">
          <dia:boolean val="true"/>
        </dia:attribute>
      </dia:object>
      <dia:object type="Standard - Text" version="1" id="O7">
        <dia:attribute name="obj_pos">
          <dia:point val="28.65,26.095"/>
        </dia:attribute>
        <dia:attribute name="obj_bb">
          <dia:rectangle val="28.65,25.545;31.25,26.495"/>
        </dia:attribute>
        <dia:attribute name="text">
          <dia:composite type="text">
            <dia:attribute name="string">
              <dia:string>#decoder#</dia:string>
            </dia:attribute>
            <dia:attribute name="font">
              <dia:font family="sans" style="0" name="Helvetica"/>
            </dia:attribute>
            <dia:attribute name="height">
              <dia:real val="0.80000000000000004"/>
            </dia:attribute>
            <dia:attribute name="pos">
              <dia:point val="28.65,26.095"/>
            </dia:attribute>
            <dia:attribute name="color">
              <dia:color val="#000000"/>
            </dia:attribute>
            <dia:attribute name="alignment">
              <dia:enum val="0"/>
            </dia:attribute>
          </dia:composite>
        </dia:attribute>
        <dia:attribute name="valign">
          <dia:enum val="3"/>
        </dia:attribute>
      </dia:object>
    </dia:group>
    <dia:group>
      <dia:object type="Standard - Box" version="0" id="O8">
        <dia:attribute name="obj_pos">
          <dia:point val="28,28.745"/>
        </dia:attribute>
        <dia:attribute name="obj_bb">
          <dia:rectangle val="27.95,28.695;33.65,32.045"/>
        </dia:attribute>
        <dia:attribute name="elem_corner">
          <dia:point val="28,28.745"/>
        </dia:attribute>
        <dia:attribute name="elem_width">
          <dia:real val="5.5999999999999979"/>
        </dia:attribute>
        <dia:attribute name="elem_height">
          <dia:real val="3.25"/>
        </dia:attribute>
        <dia:attribute name="show_background">
          <dia:boolean val="true"/>
        </dia:attribute>
      </dia:object>
      <dia:object type="Standard - Text" version="1" id="O9">
        <dia:attribute name="obj_pos">
          <dia:point val="28.4,30.27"/>
        </dia:attribute>
        <dia:attribute name="obj_bb">
          <dia:rectangle val="28.4,29.72;33.2,31.47"/>
        </dia:attribute>
        <dia:attribute name="text">
          <dia:composite type="text">
            <dia:attribute name="string">
              <dia:string>#decompression
     method#</dia:string>
            </dia:attribute>
            <dia:attribute name="font">
              <dia:font family="sans" style="0" name="Helvetica"/>
            </dia:attribute>
            <dia:attribute name="height">
              <dia:real val="0.80000000000000004"/>
            </dia:attribute>
            <dia:attribute name="pos">
              <dia:point val="28.4,30.27"/>
            </dia:attribute>
            <dia:attribute name="color">
              <dia:color val="#000000"/>
            </dia:attribute>
            <dia:attribute name="alignment">
              <dia:enum val="0"/>
            </dia:attribute>
          </dia:composite>
        </dia:attribute>
        <dia:attribute name="valign">
          <dia:enum val="3"/>
        </dia:attribute>
      </dia:object>
    </dia:group>
    <dia:object type="Standard - Box" version="0" id="O10">
      <dia:attribute name="obj_pos">
        <dia:point val="5,14"/>
      </dia:attribute>
      <dia:attribute name="obj_bb">
        <dia:rectangle val="4.95,13.95;10.05,20.2"/>
      </dia:attribute>
      <dia:attribute name="elem_corner">
        <dia:point val="5,14"/>
      </dia:attribute>
      <dia:attribute name="elem_width">
        <dia:real val="4.9999999999999982"/>
      </dia:attribute>
      <dia:attribute name="elem_height">
        <dia:real val="6.149999999999995"/>
      </dia:attribute>
      <dia:attribute name="show_background">
        <dia:boolean val="true"/>
      </dia:attribute>
    </dia:object>
    <dia:object type="Standard - Text" version="1" id="O11">
      <dia:attribute name="obj_pos">
        <dia:point val="5.8,15.8"/>
      </dia:attribute>
      <dia:attribute name="obj_bb">
        <dia:rectangle val="5.8,15.25;9.25,16.2"/>
      </dia:attribute>
      <dia:attribute name="text">
        <dia:composite type="text">
          <dia:attribute name="string">
            <dia:string>#application#</dia:string>
          </dia:attribute>
          <dia:attribute name="font">
            <dia:font family="sans" style="0" name="Helvetica"/>
          </dia:attribute>
          <dia:attribute name="height">
            <dia:real val="0.80000000000000004"/>
          </dia:attribute>
          <dia:attribute name="pos">
            <dia:point val="5.8,15.8"/>
          </dia:attribute>
          <dia:attribute name="color">
            <dia:color val="#000000"/>
          </dia:attribute>
          <dia:attribute name="alignment">
            <dia:enum val="0"/>
          </dia:attribute>
        </dia:composite>
      </dia:attribute>
      <dia:attribute name="valign">
        <dia:enum val="3"/>
      </dia:attribute>
    </dia:object>
    <dia:object type="Standard - Line" version="0" id="O12">
      <dia:attribute name="obj_pos">
        <dia:point val="10,17.075"/>
      </dia:attribute>
      <dia:attribute name="obj_bb">
        <dia:rectangle val="9.94727,16.798;14.078,17.802"/>
      </dia:attribute>
      <dia:attribute name="conn_endpoints">
        <dia:point val="10,17.075"/>
        <dia:point val="14,17.3"/>
      </dia:attribute>
      <dia:attribute name="numcp">
        <dia:int val="1"/>
      </dia:attribute>
      <dia:attribute name="line_style">
        <dia:enum val="1"/>
      </dia:attribute>
      <dia:attribute name="end_arrow">
        <dia:enum val="1"/>
      </dia:attribute>
      <dia:attribute name="end_arrow_length">
        <dia:real val="0.5"/>
      </dia:attribute>
      <dia:attribute name="end_arrow_width">
        <dia:real val="0.5"/>
      </dia:attribute>
      <dia:attribute name="dashlength">
        <dia:real val="0.40000000000000002"/>
      </dia:attribute>
      <dia:connections>
        <dia:connection handle="0" to="O10" connection="4"/>
        <dia:connection handle="1" to="O2" connection="3"/>
      </dia:connections>
    </dia:object>
    <dia:object type="Standard - Box" version="0" id="O13">
      <dia:attribute name="obj_pos">
        <dia:point val="27,14"/>
      </dia:attribute>
      <dia:attribute name="obj_bb">
        <dia:rectangle val="26.95,13.95;34.6,23.05"/>
      </dia:attribute>
      <dia:attribute name="elem_corner">
        <dia:point val="27,14"/>
      </dia:attribute>
      <dia:attribute name="elem_width">
        <dia:real val="7.5500000000000007"/>
      </dia:attribute>
      <dia:attribute name="elem_height">
        <dia:real val="9"/>
      </dia:attribute>
      <dia:attribute name="border_color">
        <dia:color val="#525252"/>
      </dia:attribute>
      <dia:attribute name="show_background">
        <dia:boolean val="false"/>
      </dia:attribute>
      <dia:attribute name="line_style">
        <dia:enum val="4"/>
      </dia:attribute>
      <dia:attribute name="corner_radius">
        <dia:real val="1"/>
      </dia:attribute>
    </dia:object>
    <dia:object type="Standard - Line" version="0" id="O14">
      <dia:attribute name="obj_pos">
        <dia:point val="14,23"/>
      </dia:attribute>
      <dia:attribute name="obj_bb">
        <dia:rectangle val="8.73023,18.8123;14.3431,23.4278"/>
      </dia:attribute>
      <dia:attribute name="conn_endpoints">
        <dia:point val="14,23"/>
        <dia:point val="9.07331,19.2401"/>
      </dia:attribute>
      <dia:attribute name="numcp">
        <dia:int val="1"/>
      </dia:attribute>
      <dia:attribute name="start_arrow">
        <dia:enum val="1"/>
      </dia:attribute>
      <dia:attribute name="start_arrow_length">
        <dia:real val="0.5"/>
      </dia:attribute>
      <dia:attribute name="start_arrow_width">
        <dia:real val="0.5"/>
      </dia:attribute>
      <dia:attribute name="end_arrow">
        <dia:enum val="1"/>
      </dia:attribute>
      <dia:attribute name="end_arrow_length">
        <dia:real val="0.5"/>
      </dia:attribute>
      <dia:attribute name="end_arrow_width">
        <dia:real val="0.5"/>
      </dia:attribute>
      <dia:connections>
        <dia:connection handle="0" to="O4" connection="0"/>
        <dia:connection handle="1" to="O43" connection="7"/>
      </dia:connections>
    </dia:object>
    <dia:object type="Standard - Line" version="0" id="O15">
      <dia:attribute name="obj_pos">
        <dia:point val="14,24.325"/>
      </dia:attribute>
      <dia:attribute name="obj_bb">
        <dia:rectangle val="9.59939,22.4837;14.2006,24.8163"/>
      </dia:attribute>
      <dia:attribute name="conn_endpoints">
        <dia:point val="14,24.325"/>
        <dia:point val="9.8,22.975"/>
      </dia:attribute>
      <dia:attribute name="numcp">
        <dia:int val="1"/>
      </dia:attribute>
      <dia:attribute name="start_arrow">
        <dia:enum val="1"/>
      </dia:attribute>
      <dia:attribute name="start_arrow_length">
        <dia:real val="0.5"/>
      </dia:attribute>
      <dia:attribute name="start_arrow_width">
        <dia:real val="0.5"/>
      </dia:attribute>
      <dia:attribute name="end_arrow">
        <dia:enum val="1"/>
      </dia:attribute>
      <dia:attribute name="end_arrow_length">
        <dia:real val="0.5"/>
      </dia:attribute>
      <dia:attribute name="end_arrow_width">
        <dia:real val="0.5"/>
      </dia:attribute>
      <dia:connections>
        <dia:connection handle="0" to="O4" connection="3"/>
        <dia:connection handle="1" to="O41" connection="4"/>
      </dia:connections>
    </dia:object>
    <dia:group>
      <dia:object type="Standard - Box" version="0" id="O16">
        <dia:attribute name="obj_pos">
          <dia:point val="28,15"/>
        </dia:attribute>
        <dia:attribute name="obj_bb">
          <dia:rectangle val="27.95,14.95;32,17.35"/>
        </dia:attribute>
        <dia:attribute name="elem_corner">
          <dia:point val="28,15"/>
        </dia:attribute>
        <dia:attribute name="elem_width">
          <dia:real val="3.9499999999999993"/>
        </dia:attribute>
        <dia:attribute name="elem_height">
          <dia:real val="2.2999999999999972"/>
        </dia:attribute>
        <dia:attribute name="show_background">
          <dia:boolean val="true"/>
        </dia:attribute>
      </dia:object>
      <dia:object type="Standard - Text" version="1" id="O17">
        <dia:attribute name="obj_pos">
          <dia:point val="29.05,16.35"/>
        </dia:attribute>
        <dia:attribute name="obj_bb">
          <dia:rectangle val="29.05,15.8;30.85,16.75"/>
        </dia:attribute>
        <dia:attribute name="text">
          <dia:composite type="text">
            <dia:attribute name="string">
              <dia:string>#coder#</dia:string>
            </dia:attribute>
            <dia:attribute name="font">
              <dia:font family="sans" style="0" name="Helvetica"/>
            </dia:attribute>
            <dia:attribute name="height">
              <dia:real val="0.80000000000000004"/>
            </dia:attribute>
            <dia:attribute name="pos">
              <dia:point val="29.05,16.35"/>
            </dia:attribute>
            <dia:attribute name="color">
              <dia:color val="#000000"/>
            </dia:attribute>
            <dia:attribute name="alignment">
              <dia:enum val="0"/>
            </dia:attribute>
          </dia:composite>
        </dia:attribute>
        <dia:attribute name="valign">
          <dia:enum val="3"/>
        </dia:attribute>
      </dia:object>
    </dia:group>
    <dia:group>
      <dia:object type="Standard - Box" version="0" id="O18">
        <dia:attribute name="obj_pos">
          <dia:point val="28,19"/>
        </dia:attribute>
        <dia:attribute name="obj_bb">
          <dia:rectangle val="27.95,18.95;33.65,22.3"/>
        </dia:attribute>
        <dia:attribute name="elem_corner">
          <dia:point val="28,19"/>
        </dia:attribute>
        <dia:attribute name="elem_width">
          <dia:real val="5.5999999999999979"/>
        </dia:attribute>
        <dia:attribute name="elem_height">
          <dia:real val="3.25"/>
        </dia:attribute>
        <dia:attribute name="show_background">
          <dia:boolean val="true"/>
        </dia:attribute>
      </dia:object>
      <dia:object type="Standard - Text" version="1" id="O19">
        <dia:attribute name="obj_pos">
          <dia:point val="28.75,20.375"/>
        </dia:attribute>
        <dia:attribute name="obj_bb">
          <dia:rectangle val="28.75,19.825;32.75,21.575"/>
        </dia:attribute>
        <dia:attribute name="text">
          <dia:composite type="text">
            <dia:attribute name="string">
              <dia:string>#compression
    method#</dia:string>
            </dia:attribute>
            <dia:attribute name="font">
              <dia:font family="sans" style="0" name="Helvetica"/>
            </dia:attribute>
            <dia:attribute name="height">
              <dia:real val="0.80000000000000004"/>
            </dia:attribute>
            <dia:attribute name="pos">
              <dia:point val="28.75,20.375"/>
            </dia:attribute>
            <dia:attribute name="color">
              <dia:color val="#000000"/>
            </dia:attribute>
            <dia:attribute name="alignment">
              <dia:enum val="0"/>
            </dia:attribute>
          </dia:composite>
        </dia:attribute>
        <dia:attribute name="valign">
          <dia:enum val="3"/>
        </dia:attribute>
      </dia:object>
    </dia:group>
    <dia:object type="Standard - Arc" version="0" id="O20">
      <dia:attribute name="obj_pos">
        <dia:point val="17.025,19.6"/>
      </dia:attribute>
      <dia:attribute name="obj_bb">
        <dia:rectangle val="16.1959,19.543;17.082,23.1257"/>
      </dia:attribute>
      <dia:attribute name="conn_endpoints">
        <dia:point val="17.025,19.6"/>
        <dia:point val="16.5,23"/>
      </dia:attribute>
      <dia:attribute name="arc_color">
        <dia:color val="#525252"/>
      </dia:attribute>
      <dia:attribute name="curve_distance">
        <dia:real val="0.48360687947711611"/>
      </dia:attribute>
      <dia:attribute name="line_style">
        <dia:enum val="4"/>
      </dia:attribute>
      <dia:attribute name="end_arrow">
        <dia:enum val="1"/>
      </dia:attribute>
      <dia:attribute name="end_arrow_length">
        <dia:real val="0.5"/>
      </dia:attribute>
      <dia:attribute name="end_arrow_width">
        <dia:real val="0.5"/>
      </dia:attribute>
      <dia:connections>
        <dia:connection handle="0" to="O2" connection="6"/>
        <dia:connection handle="1" to="O4" connection="1"/>
      </dia:connections>
    </dia:object>
    <dia:object type="Standard - Arc" version="0" id="O21">
      <dia:attribute name="obj_pos">
        <dia:point val="20.05,17.3"/>
      </dia:attribute>
      <dia:attribute name="obj_bb">
        <dia:rectangle val="19.9922,16.8588;27.1343,19.0012"/>
      </dia:attribute>
      <dia:attribute name="conn_endpoints">
        <dia:point val="20.05,17.3"/>
        <dia:point val="27,18.5"/>
      </dia:attribute>
      <dia:attribute name="arc_color">
        <dia:color val="#525252"/>
      </dia:attribute>
      <dia:attribute name="curve_distance">
        <dia:real val="-0.89666939980281624"/>
      </dia:attribute>
      <dia:attribute name="line_style">
        <dia:enum val="4"/>
      </dia:attribute>
      <dia:attribute name="end_arrow">
        <dia:enum val="1"/>
      </dia:attribute>
      <dia:attribute name="end_arrow_length">
        <dia:real val="0.5"/>
      </dia:attribute>
      <dia:attribute name="end_arrow_width">
        <dia:real val="0.5"/>
      </dia:attribute>
      <dia:connections>
        <dia:connection handle="0" to="O2" connection="4"/>
        <dia:connection handle="1" to="O13" connection="3"/>
      </dia:connections>
    </dia:object>
    <dia:object type="Standard - Line" version="0" id="O22">
      <dia:attribute name="obj_pos">
        <dia:point val="29.975,27.045"/>
      </dia:attribute>
      <dia:attribute name="obj_bb">
        <dia:rectangle val="29.9082,26.9782;31.2717,29.0083"/>
      </dia:attribute>
      <dia:attribute name="conn_endpoints">
        <dia:point val="29.975,27.045"/>
        <dia:point val="30.8,28.745"/>
      </dia:attribute>
      <dia:attribute name="numcp">
        <dia:int val="1"/>
      </dia:attribute>
      <dia:attribute name="end_arrow">
        <dia:enum val="1"/>
      </dia:attribute>
      <dia:attribute name="end_arrow_length">
        <dia:real val="0.5"/>
      </dia:attribute>
      <dia:attribute name="end_arrow_width">
        <dia:real val="0.5"/>
      </dia:attribute>
      <dia:connections>
        <dia:connection handle="0" to="O6" connection="6"/>
        <dia:connection handle="1" to="O8" connection="1"/>
      </dia:connections>
    </dia:object>
    <dia:object type="Standard - Line" version="0" id="O23">
      <dia:attribute name="obj_pos">
        <dia:point val="30.8,19"/>
      </dia:attribute>
      <dia:attribute name="obj_bb">
        <dia:rectangle val="29.5033,17.0367;30.8668,19.0668"/>
      </dia:attribute>
      <dia:attribute name="conn_endpoints">
        <dia:point val="30.8,19"/>
        <dia:point val="29.975,17.3"/>
      </dia:attribute>
      <dia:attribute name="numcp">
        <dia:int val="1"/>
      </dia:attribute>
      <dia:attribute name="end_arrow">
        <dia:enum val="1"/>
      </dia:attribute>
      <dia:attribute name="end_arrow_length">
        <dia:real val="0.5"/>
      </dia:attribute>
      <dia:attribute name="end_arrow_width">
        <dia:real val="0.5"/>
      </dia:attribute>
      <dia:connections>
        <dia:connection handle="0" to="O18" connection="1"/>
        <dia:connection handle="1" to="O16" connection="6"/>
      </dia:connections>
    </dia:object>
    <dia:object type="Standard - Arc" version="0" id="O24">
      <dia:attribute name="obj_pos">
        <dia:point val="19,24.325"/>
      </dia:attribute>
      <dia:attribute name="obj_bb">
        <dia:rectangle val="18.9347,20.1435;28.2364,24.3903"/>
      </dia:attribute>
      <dia:attribute name="conn_endpoints">
        <dia:point val="19,24.325"/>
        <dia:point val="28,20.625"/>
      </dia:attribute>
      <dia:attribute name="curve_distance">
        <dia:real val="0.38389293935057417"/>
      </dia:attribute>
      <dia:attribute name="end_arrow">
        <dia:enum val="1"/>
      </dia:attribute>
      <dia:attribute name="end_arrow_length">
        <dia:real val="0.5"/>
      </dia:attribute>
      <dia:attribute name="end_arrow_width">
        <dia:real val="0.5"/>
      </dia:attribute>
      <dia:connections>
        <dia:connection handle="0" to="O4" connection="4"/>
        <dia:connection handle="1" to="O18" connection="3"/>
      </dia:connections>
    </dia:object>
    <dia:object type="Standard - Arc" version="0" id="O25">
      <dia:attribute name="obj_pos">
        <dia:point val="28,16.15"/>
      </dia:attribute>
      <dia:attribute name="obj_bb">
        <dia:rectangle val="18.6574,16.0799;28.0701,23.4282"/>
      </dia:attribute>
      <dia:attribute name="conn_endpoints">
        <dia:point val="28,16.15"/>
        <dia:point val="19,23"/>
      </dia:attribute>
      <dia:attribute name="curve_distance">
        <dia:real val="0.74286203210868951"/>
      </dia:attribute>
      <dia:attribute name="end_arrow">
        <dia:enum val="1"/>
      </dia:attribute>
      <dia:attribute name="end_arrow_length">
        <dia:real val="0.5"/>
      </dia:attribute>
      <dia:attribute name="end_arrow_width">
        <dia:real val="0.5"/>
      </dia:attribute>
      <dia:connections>
        <dia:connection handle="0" to="O16" connection="3"/>
        <dia:connection handle="1" to="O4" connection="2"/>
      </dia:connections>
    </dia:object>
    <dia:object type="Standard - Arc" version="0" id="O26">
      <dia:attribute name="obj_pos">
        <dia:point val="19,24.325"/>
      </dia:attribute>
      <dia:attribute name="obj_bb">
        <dia:rectangle val="18.9422,24.2672;28.1352,26.3962"/>
      </dia:attribute>
      <dia:attribute name="conn_endpoints">
        <dia:point val="19,24.325"/>
        <dia:point val="28,25.895"/>
      </dia:attribute>
      <dia:attribute name="curve_distance">
        <dia:real val="-0.051665973403149677"/>
      </dia:attribute>
      <dia:attribute name="end_arrow">
        <dia:enum val="1"/>
      </dia:attribute>
      <dia:attribute name="end_arrow_length">
        <dia:real val="0.5"/>
      </dia:attribute>
      <dia:attribute name="end_arrow_width">
        <dia:real val="0.5"/>
      </dia:attribute>
      <dia:connections>
        <dia:connection handle="0" to="O4" connection="4"/>
        <dia:connection handle="1" to="O6" connection="3"/>
      </dia:connections>
    </dia:object>
    <dia:object type="Standard - Arc" version="0" id="O27">
      <dia:attribute name="obj_pos">
        <dia:point val="28,30.37"/>
      </dia:attribute>
      <dia:attribute name="obj_bb">
        <dia:rectangle val="18.7235,25.184;28.0675,30.4375"/>
      </dia:attribute>
      <dia:attribute name="conn_endpoints">
        <dia:point val="28,30.37"/>
        <dia:point val="19,25.65"/>
      </dia:attribute>
      <dia:attribute name="curve_distance">
        <dia:real val="-0.96407238309930721"/>
      </dia:attribute>
      <dia:attribute name="end_arrow">
        <dia:enum val="1"/>
      </dia:attribute>
      <dia:attribute name="end_arrow_length">
        <dia:real val="0.5"/>
      </dia:attribute>
      <dia:attribute name="end_arrow_width">
        <dia:real val="0.5"/>
      </dia:attribute>
      <dia:connections>
        <dia:connection handle="0" to="O8" connection="3"/>
        <dia:connection handle="1" to="O4" connection="7"/>
      </dia:connections>
    </dia:object>
    <dia:object type="Standard - Arc" version="0" id="O28">
      <dia:attribute name="obj_pos">
        <dia:point val="20.05,19.6"/>
      </dia:attribute>
      <dia:attribute name="obj_bb">
        <dia:rectangle val="19.9808,19.5308;27.6067,24.7397"/>
      </dia:attribute>
      <dia:attribute name="conn_endpoints">
        <dia:point val="20.05,19.6"/>
        <dia:point val="27.2929,24.2929"/>
      </dia:attribute>
      <dia:attribute name="arc_color">
        <dia:color val="#525252"/>
      </dia:attribute>
      <dia:attribute name="curve_distance">
        <dia:real val="0.64395658124836008"/>
      </dia:attribute>
      <dia:attribute name="line_style">
        <dia:enum val="4"/>
      </dia:attribute>
      <dia:attribute name="end_arrow">
        <dia:enum val="1"/>
      </dia:attribute>
      <dia:attribute name="end_arrow_length">
        <dia:real val="0.5"/>
      </dia:attribute>
      <dia:attribute name="end_arrow_width">
        <dia:real val="0.5"/>
      </dia:attribute>
      <dia:connections>
        <dia:connection handle="0" to="O2" connection="7"/>
        <dia:connection handle="1" to="O1" connection="0"/>
      </dia:connections>
    </dia:object>
    <dia:object type="Standard - Line" version="0" id="O29">
      <dia:attribute name="obj_pos">
        <dia:point val="38,30"/>
      </dia:attribute>
      <dia:attribute name="obj_bb">
        <dia:rectangle val="37.95,29.5;40.05,30.5"/>
      </dia:attribute>
      <dia:attribute name="conn_endpoints">
        <dia:point val="38,30"/>
        <dia:point val="40,30"/>
      </dia:attribute>
      <dia:attribute name="numcp">
        <dia:int val="1"/>
      </dia:attribute>
      <dia:attribute name="line_color">
        <dia:color val="#525252"/>
      </dia:attribute>
      <dia:attribute name="line_style">
        <dia:enum val="4"/>
      </dia:attribute>
      <dia:attribute name="end_arrow">
        <dia:enum val="1"/>
      </dia:attribute>
      <dia:attribute name="end_arrow_length">
        <dia:real val="0.5"/>
      </dia:attribute>
      <dia:attribute name="end_arrow_width">
        <dia:real val="0.5"/>
      </dia:attribute>
    </dia:object>
    <dia:object type="Standard - Text" version="1" id="O30">
      <dia:attribute name="obj_pos">
        <dia:point val="41,30"/>
      </dia:attribute>
      <dia:attribute name="obj_bb">
        <dia:rectangle val="41,29.45;42.8,30.4"/>
      </dia:attribute>
      <dia:attribute name="text">
        <dia:composite type="text">
          <dia:attribute name="string">
            <dia:string>#setup#</dia:string>
          </dia:attribute>
          <dia:attribute name="font">
            <dia:font family="sans" style="0" name="Helvetica"/>
          </dia:attribute>
          <dia:attribute name="height">
            <dia:real val="0.80000000000000004"/>
          </dia:attribute>
          <dia:attribute name="pos">
            <dia:point val="41,30"/>
          </dia:attribute>
          <dia:attribute name="color">
            <dia:color val="#000000"/>
          </dia:attribute>
          <dia:attribute name="alignment">
            <dia:enum val="0"/>
          </dia:attribute>
        </dia:composite>
      </dia:attribute>
      <dia:attribute name="valign">
        <dia:enum val="3"/>
      </dia:attribute>
    </dia:object>
    <dia:object type="Standard - Line" version="0" id="O31">
      <dia:attribute name="obj_pos">
        <dia:point val="38,31"/>
      </dia:attribute>
      <dia:attribute name="obj_bb">
        <dia:rectangle val="37.95,30.5;40.05,31.5"/>
      </dia:attribute>
      <dia:attribute name="conn_endpoints">
        <dia:point val="38,31"/>
        <dia:point val="40,31"/>
      </dia:attribute>
      <dia:attribute name="numcp">
        <dia:int val="1"/>
      </dia:attribute>
      <dia:attribute name="end_arrow">
        <dia:enum val="1"/>
      </dia:attribute>
      <dia:attribute name="end_arrow_length">
        <dia:real val="0.5"/>
      </dia:attribute>
      <dia:attribute name="end_arrow_width">
        <dia:real val="0.5"/>
      </dia:attribute>
    </dia:object>
    <dia:object type="Standard - Text" version="1" id="O32">
      <dia:attribute name="obj_pos">
        <dia:point val="41,31"/>
      </dia:attribute>
      <dia:attribute name="obj_bb">
        <dia:rectangle val="41,30.45;45.5,31.4"/>
      </dia:attribute>
      <dia:attribute name="text">
        <dia:composite type="text">
          <dia:attribute name="string">
            <dia:string>#data transfers#</dia:string>
          </dia:attribute>
          <dia:attribute name="font">
            <dia:font family="sans" style="0" name="Helvetica"/>
          </dia:attribute>
          <dia:attribute name="height">
            <dia:real val="0.80000000000000004"/>
          </dia:attribute>
          <dia:attribute name="pos">
            <dia:point val="41,31"/>
          </dia:attribute>
          <dia:attribute name="color">
            <dia:color val="#000000"/>
          </dia:attribute>
          <dia:attribute name="alignment">
            <dia:enum val="0"/>
          </dia:attribute>
        </dia:composite>
      </dia:attribute>
      <dia:attribute name="valign">
        <dia:enum val="3"/>
      </dia:attribute>
    </dia:object>
    <dia:object type="Standard - Line" version="0" id="O33">
      <dia:attribute name="obj_pos">
        <dia:point val="38,32"/>
      </dia:attribute>
      <dia:attribute name="obj_bb">
        <dia:rectangle val="37.95,31.5;40.05,32.5"/>
      </dia:attribute>
      <dia:attribute name="conn_endpoints">
        <dia:point val="38,32"/>
        <dia:point val="40,32"/>
      </dia:attribute>
      <dia:attribute name="numcp">
        <dia:int val="1"/>
      </dia:attribute>
      <dia:attribute name="line_style">
        <dia:enum val="1"/>
      </dia:attribute>
      <dia:attribute name="end_arrow">
        <dia:enum val="1"/>
      </dia:attribute>
      <dia:attribute name="end_arrow_length">
        <dia:real val="0.5"/>
      </dia:attribute>
      <dia:attribute name="end_arrow_width">
        <dia:real val="0.5"/>
      </dia:attribute>
      <dia:attribute name="dashlength">
        <dia:real val="0.40000000000000002"/>
      </dia:attribute>
    </dia:object>
    <dia:object type="Standard - Text" version="1" id="O34">
      <dia:attribute name="obj_pos">
        <dia:point val="41,32"/>
      </dia:attribute>
      <dia:attribute name="obj_bb">
        <dia:rectangle val="41,31.45;43.55,32.4"/>
      </dia:attribute>
      <dia:attribute name="text">
        <dia:composite type="text">
          <dia:attribute name="string">
            <dia:string>#API calls#</dia:string>
          </dia:attribute>
          <dia:attribute name="font">
            <dia:font family="sans" style="0" name="Helvetica"/>
          </dia:attribute>
          <dia:attribute name="height">
            <dia:real val="0.80000000000000004"/>
          </dia:attribute>
          <dia:attribute name="pos">
            <dia:point val="41,32"/>
          </dia:attribute>
          <dia:attribute name="color">
            <dia:color val="#000000"/>
          </dia:attribute>
          <dia:attribute name="alignment">
            <dia:enum val="0"/>
          </dia:attribute>
        </dia:composite>
      </dia:attribute>
      <dia:attribute name="valign">
        <dia:enum val="3"/>
      </dia:attribute>
    </dia:object>
    <dia:object type="Standard - Line" version="0" id="O35">
      <dia:attribute name="obj_pos">
        <dia:point val="35.7071,13.2929"/>
      </dia:attribute>
      <dia:attribute name="obj_bb">
        <dia:rectangle val="35.6473,12.9402;37.0598,13.3527"/>
      </dia:attribute>
      <dia:attribute name="conn_endpoints">
        <dia:point val="35.7071,13.2929"/>
        <dia:point val="37,13"/>
      </dia:attribute>
      <dia:attribute name="numcp">
        <dia:int val="1"/>
      </dia:attribute>
      <dia:attribute name="line_color">
        <dia:color val="#525252"/>
      </dia:attribute>
      <dia:attribute name="line_style">
        <dia:enum val="4"/>
      </dia:attribute>
      <dia:connections>
        <dia:connection handle="0" to="O0" connection="2"/>
      </dia:connections>
    </dia:object>
    <dia:object type="Standard - Text" version="1" id="O36">
      <dia:attribute name="obj_pos">
        <dia:point val="38,13"/>
      </dia:attribute>
      <dia:attribute name="obj_bb">
        <dia:rectangle val="38,12.4325;39.9175,13.435"/>
      </dia:attribute>
      <dia:attribute name="text">
        <dia:composite type="text">
          <dia:attribute name="string">
            <dia:string>#library#</dia:string>
          </dia:attribute>
          <dia:attribute name="font">
            <dia:font family="sans" style="0" name="Helvetica"/>
          </dia:attribute>
          <dia:attribute name="height">
            <dia:real val="0.80000000000000004"/>
          </dia:attribute>
          <dia:attribute name="pos">
            <dia:point val="38,13"/>
          </dia:attribute>
          <dia:attribute name="color">
            <dia:color val="#525252"/>
          </dia:attribute>
          <dia:attribute name="alignment">
            <dia:enum val="0"/>
          </dia:attribute>
        </dia:composite>
      </dia:attribute>
      <dia:attribute name="valign">
        <dia:enum val="3"/>
      </dia:attribute>
    </dia:object>
    <dia:object type="Standard - Line" version="0" id="O37">
      <dia:attribute name="obj_pos">
        <dia:point val="34.55,18.5"/>
      </dia:attribute>
      <dia:attribute name="obj_bb">
        <dia:rectangle val="34.491,17.941;37.059,18.559"/>
      </dia:attribute>
      <dia:attribute name="conn_endpoints">
        <dia:point val="34.55,18.5"/>
        <dia:point val="37,18"/>
      </dia:attribute>
      <dia:attribute name="numcp">
        <dia:int val="1"/>
      </dia:attribute>
      <dia:attribute name="line_color">
        <dia:color val="#525252"/>
      </dia:attribute>
      <dia:attribute name="line_style">
        <dia:enum val="4"/>
      </dia:attribute>
      <dia:connections>
        <dia:connection handle="0" to="O13" connection="4"/>
      </dia:connections>
    </dia:object>
    <dia:object type="Standard - Text" version="1" id="O38">
      <dia:attribute name="obj_pos">
        <dia:point val="38,18"/>
      </dia:attribute>
      <dia:attribute name="obj_bb">
        <dia:rectangle val="38,17.4325;43.4175,18.435"/>
      </dia:attribute>
      <dia:attribute name="text">
        <dia:composite type="text">
          <dia:attribute name="string">
            <dia:string>#compression unit#</dia:string>
          </dia:attribute>
          <dia:attribute name="font">
            <dia:font family="sans" style="0" name="Helvetica"/>
          </dia:attribute>
          <dia:attribute name="height">
            <dia:real val="0.80000000000000004"/>
          </dia:attribute>
          <dia:attribute name="pos">
            <dia:point val="38,18"/>
          </dia:attribute>
          <dia:attribute name="color">
            <dia:color val="#525252"/>
          </dia:attribute>
          <dia:attribute name="alignment">
            <dia:enum val="0"/>
          </dia:attribute>
        </dia:composite>
      </dia:attribute>
      <dia:attribute name="valign">
        <dia:enum val="3"/>
      </dia:attribute>
    </dia:object>
    <dia:object type="Standard - Line" version="0" id="O39">
      <dia:attribute name="obj_pos">
        <dia:point val="34.3071,24.2929"/>
      </dia:attribute>
      <dia:attribute name="obj_bb">
        <dia:rectangle val="34.252,23.9449;37.0551,24.348"/>
      </dia:attribute>
      <dia:attribute name="conn_endpoints">
        <dia:point val="34.3071,24.2929"/>
        <dia:point val="37,24"/>
      </dia:attribute>
      <dia:attribute name="numcp">
        <dia:int val="1"/>
      </dia:attribute>
      <dia:attribute name="line_color">
        <dia:color val="#525252"/>
      </dia:attribute>
      <dia:attribute name="line_style">
        <dia:enum val="4"/>
      </dia:attribute>
      <dia:connections>
        <dia:connection handle="0" to="O1" connection="2"/>
      </dia:connections>
    </dia:object>
    <dia:object type="Standard - Text" version="1" id="O40">
      <dia:attribute name="obj_pos">
        <dia:point val="38,24"/>
      </dia:attribute>
      <dia:attribute name="obj_bb">
        <dia:rectangle val="38,23.4325;44.2175,24.435"/>
      </dia:attribute>
      <dia:attribute name="text">
        <dia:composite type="text">
          <dia:attribute name="string">
            <dia:string>#decompression unit#</dia:string>
          </dia:attribute>
          <dia:attribute name="font">
            <dia:font family="sans" style="0" name="Helvetica"/>
          </dia:attribute>
          <dia:attribute name="height">
            <dia:real val="0.80000000000000004"/>
          </dia:attribute>
          <dia:attribute name="pos">
            <dia:point val="38,24"/>
          </dia:attribute>
          <dia:attribute name="color">
            <dia:color val="#525252"/>
          </dia:attribute>
          <dia:attribute name="alignment">
            <dia:enum val="0"/>
          </dia:attribute>
        </dia:composite>
      </dia:attribute>
      <dia:attribute name="valign">
        <dia:enum val="3"/>
      </dia:attribute>
    </dia:object>
    <dia:group>
      <dia:object type="Standard - Ellipse" version="0" id="O41">
        <dia:attribute name="obj_pos">
          <dia:point val="5.35,21.9"/>
        </dia:attribute>
        <dia:attribute name="obj_bb">
          <dia:rectangle val="5.3,21.85;9.85,24.1"/>
        </dia:attribute>
        <dia:attribute name="elem_corner">
          <dia:point val="5.35,21.9"/>
        </dia:attribute>
        <dia:attribute name="elem_width">
          <dia:real val="4.4500000000000011"/>
        </dia:attribute>
        <dia:attribute name="elem_height">
          <dia:real val="2.1499999999999915"/>
        </dia:attribute>
      </dia:object>
      <dia:object type="Standard - Text" version="1" id="O42">
        <dia:attribute name="obj_pos">
          <dia:point val="7.05939,23.14"/>
        </dia:attribute>
        <dia:attribute name="obj_bb">
          <dia:rectangle val="7.05939,22.59;8.30939,23.54"/>
        </dia:attribute>
        <dia:attribute name="text">
          <dia:composite type="text">
            <dia:attribute name="string">
              <dia:string>#files#</dia:string>
            </dia:attribute>
            <dia:attribute name="font">
              <dia:font family="sans" style="0" name="Helvetica"/>
            </dia:attribute>
            <dia:attribute name="height">
              <dia:real val="0.80000000000000004"/>
            </dia:attribute>
            <dia:attribute name="pos">
              <dia:point val="7.05939,23.14"/>
            </dia:attribute>
            <dia:attribute name="color">
              <dia:color val="#000000"/>
            </dia:attribute>
            <dia:attribute name="alignment">
              <dia:enum val="0"/>
            </dia:attribute>
          </dia:composite>
        </dia:attribute>
        <dia:attribute name="valign">
          <dia:enum val="3"/>
        </dia:attribute>
      </dia:object>
    </dia:group>
    <dia:group>
      <dia:object type="Standard - Ellipse" version="0" id="O43">
        <dia:attribute name="obj_pos">
          <dia:point val="5.275,17.405"/>
        </dia:attribute>
        <dia:attribute name="obj_bb">
          <dia:rectangle val="5.225,17.355;9.775,19.605"/>
        </dia:attribute>
        <dia:attribute name="elem_corner">
          <dia:point val="5.275,17.405"/>
        </dia:attribute>
        <dia:attribute name="elem_width">
          <dia:real val="4.4500000000000011"/>
        </dia:attribute>
        <dia:attribute name="elem_height">
          <dia:real val="2.1499999999999915"/>
        </dia:attribute>
      </dia:object>
      <dia:object type="Standard - Text" version="1" id="O44">
        <dia:attribute name="obj_pos">
          <dia:point val="6.31772,18.6681"/>
        </dia:attribute>
        <dia:attribute name="obj_bb">
          <dia:rectangle val="6.31772,18.1181;8.76772,19.0681"/>
        </dia:attribute>
        <dia:attribute name="text">
          <dia:composite type="text">
            <dia:attribute name="string">
              <dia:string>#memory#</dia:string>
            </dia:attribute>
            <dia:attribute name="font">
              <dia:font family="sans" style="0" name="Helvetica"/>
            </dia:attribute>
            <dia:attribute name="height">
              <dia:real val="0.80000000000000004"/>
            </dia:attribute>
            <dia:attribute name="pos">
              <dia:point val="6.31772,18.6681"/>
            </dia:attribute>
            <dia:attribute name="color">
              <dia:color val="#000000"/>
            </dia:attribute>
            <dia:attribute name="alignment">
              <dia:enum val="0"/>
            </dia:attribute>
          </dia:composite>
        </dia:attribute>
        <dia:attribute name="valign">
          <dia:enum val="3"/>
        </dia:attribute>
      </dia:object>
    </dia:group>
  </dia:layer>
</dia:diagram>
