<?xml version="1.0" encoding="UTF-8"?>
<dia:diagram xmlns:dia="http://www.lysator.liu.se/~alla/dia/">
  <dia:diagramdata>
    <dia:attribute name="background">
      <dia:color val="#ffffff"/>
    </dia:attribute>
    <dia:attribute name="pagebreak">
      <dia:color val="#000099"/>
    </dia:attribute>
    <dia:attribute name="paper">
      <dia:composite type="paper">
        <dia:attribute name="name">
          <dia:string>#A4#</dia:string>
        </dia:attribute>
        <dia:attribute name="tmargin">
          <dia:real val="2.8222000598907471"/>
        </dia:attribute>
        <dia:attribute name="bmargin">
          <dia:real val="2.8222000598907471"/>
        </dia:attribute>
        <dia:attribute name="lmargin">
          <dia:real val="2.8222000598907471"/>
        </dia:attribute>
        <dia:attribute name="rmargin">
          <dia:real val="2.8222000598907471"/>
        </dia:attribute>
        <dia:attribute name="is_portrait">
          <dia:boolean val="true"/>
        </dia:attribute>
        <dia:attribute name="scaling">
          <dia:real val="1"/>
        </dia:attribute>
        <dia:attribute name="fitto">
          <dia:boolean val="false"/>
        </dia:attribute>
      </dia:composite>
    </dia:attribute>
    <dia:attribute name="grid">
      <dia:composite type="grid">
        <dia:attribute name="width_x">
          <dia:real val="1"/>
        </dia:attribute>
        <dia:attribute name="width_y">
          <dia:real val="1"/>
        </dia:attribute>
        <dia:attribute name="visible_x">
          <dia:int val="1"/>
        </dia:attribute>
        <dia:attribute name="visible_y">
          <dia:int val="1"/>
        </dia:attribute>
        <dia:composite type="color"/>
      </dia:composite>
    </dia:attribute>
    <dia:attribute name="color">
      <dia:color val="#d8e5e5"/>
    </dia:attribute>
    <dia:attribute name="guides">
      <dia:composite type="guides">
        <dia:attribute name="hguides"/>
        <dia:attribute name="vguides"/>
      </dia:composite>
    </dia:attribute>
  </dia:diagramdata>
  <dia:layer name="Background" visible="true">
    <dia:object type="Standard - Box" version="0" id="O0">
      <dia:attribute name="obj_pos">
        <dia:point val="14,4"/>
      </dia:attribute>
      <dia:attribute name="obj_bb">
        <dia:rectangle val="13.95,3.95;37.05,19.05"/>
      </dia:attribute>
      <dia:attribute name="elem_corner">
        <dia:point val="14,4"/>
      </dia:attribute>
      <dia:attribute name="elem_width">
        <dia:real val="23"/>
      </dia:attribute>
      <dia:attribute name="elem_height">
        <dia:real val="15"/>
      </dia:attribute>
      <dia:attribute name="border_color">
        <dia:color val="#525252"/>
      </dia:attribute>
      <dia:attribute name="show_background">
        <dia:boolean val="false"/>
      </dia:attribute>
      <dia:attribute name="line_style">
        <dia:enum val="4"/>
      </dia:attribute>
      <dia:attribute name="corner_radius">
        <dia:real val="1"/>
      </dia:attribute>
    </dia:object>
    <dia:group>
      <dia:object type="Standard - Box" version="0" id="O1">
        <dia:attribute name="obj_pos">
          <dia:point val="15,5"/>
        </dia:attribute>
        <dia:attribute name="obj_bb">
          <dia:rectangle val="14.95,4.95;21.1,9.65"/>
        </dia:attribute>
        <dia:attribute name="elem_corner">
          <dia:point val="15,5"/>
        </dia:attribute>
        <dia:attribute name="elem_width">
          <dia:real val="6.0500000000000007"/>
        </dia:attribute>
        <dia:attribute name="elem_height">
          <dia:real val="4.6000000000000014"/>
        </dia:attribute>
        <dia:attribute name="show_background">
          <dia:boolean val="true"/>
        </dia:attribute>
      </dia:object>
      <dia:object type="Standard - Text" version="1" id="O2">
        <dia:attribute name="obj_pos">
          <dia:point val="16.025,6.775"/>
        </dia:attribute>
        <dia:attribute name="obj_bb">
          <dia:rectangle val="16.025,6.225;20.025,7.975"/>
        </dia:attribute>
        <dia:attribute name="text">
          <dia:composite type="text">
            <dia:attribute name="string">
              <dia:string>#   libexcom
main module#</dia:string>
            </dia:attribute>
            <dia:attribute name="font">
              <dia:font family="sans" style="0" name="Helvetica"/>
            </dia:attribute>
            <dia:attribute name="height">
              <dia:real val="0.80000000000000004"/>
            </dia:attribute>
            <dia:attribute name="pos">
              <dia:point val="16.025,6.775"/>
            </dia:attribute>
            <dia:attribute name="color">
              <dia:color val="#000000"/>
            </dia:attribute>
            <dia:attribute name="alignment">
              <dia:enum val="0"/>
            </dia:attribute>
          </dia:composite>
        </dia:attribute>
        <dia:attribute name="valign">
          <dia:enum val="3"/>
        </dia:attribute>
      </dia:object>
    </dia:group>
    <dia:group>
      <dia:object type="Standard - Box" version="0" id="O3">
        <dia:attribute name="obj_pos">
          <dia:point val="19,15"/>
        </dia:attribute>
        <dia:attribute name="obj_bb">
          <dia:rectangle val="18.95,14.95;24.05,17.7"/>
        </dia:attribute>
        <dia:attribute name="elem_corner">
          <dia:point val="19,15"/>
        </dia:attribute>
        <dia:attribute name="elem_width">
          <dia:real val="5"/>
        </dia:attribute>
        <dia:attribute name="elem_height">
          <dia:real val="2.6500000000000021"/>
        </dia:attribute>
        <dia:attribute name="show_background">
          <dia:boolean val="true"/>
        </dia:attribute>
      </dia:object>
      <dia:object type="Standard - Text" version="1" id="O4">
        <dia:attribute name="obj_pos">
          <dia:point val="19.75,16.6"/>
        </dia:attribute>
        <dia:attribute name="obj_bb">
          <dia:rectangle val="19.75,16.05;23.05,17"/>
        </dia:attribute>
        <dia:attribute name="text">
          <dia:composite type="text">
            <dia:attribute name="string">
              <dia:string>#I/O module#</dia:string>
            </dia:attribute>
            <dia:attribute name="font">
              <dia:font family="sans" style="0" name="Helvetica"/>
            </dia:attribute>
            <dia:attribute name="height">
              <dia:real val="0.80000000000000004"/>
            </dia:attribute>
            <dia:attribute name="pos">
              <dia:point val="19.75,16.6"/>
            </dia:attribute>
            <dia:attribute name="color">
              <dia:color val="#000000"/>
            </dia:attribute>
            <dia:attribute name="alignment">
              <dia:enum val="0"/>
            </dia:attribute>
          </dia:composite>
        </dia:attribute>
        <dia:attribute name="valign">
          <dia:enum val="3"/>
        </dia:attribute>
      </dia:object>
    </dia:group>
    <dia:object type="Standard - Line" version="0" id="O5">
      <dia:attribute name="obj_pos">
        <dia:point val="11,7.475"/>
      </dia:attribute>
      <dia:attribute name="obj_bb">
        <dia:rectangle val="10.9479,6.79829;15.0718,7.80171"/>
      </dia:attribute>
      <dia:attribute name="conn_endpoints">
        <dia:point val="11,7.475"/>
        <dia:point val="15,7.3"/>
      </dia:attribute>
      <dia:attribute name="numcp">
        <dia:int val="1"/>
      </dia:attribute>
      <dia:attribute name="end_arrow">
        <dia:enum val="1"/>
      </dia:attribute>
      <dia:attribute name="end_arrow_length">
        <dia:real val="0.5"/>
      </dia:attribute>
      <dia:attribute name="end_arrow_width">
        <dia:real val="0.5"/>
      </dia:attribute>
      <dia:connections>
        <dia:connection handle="0" to="O13" connection="4"/>
        <dia:connection handle="1" to="O1" connection="3"/>
      </dia:connections>
    </dia:object>
    <dia:object type="Standard - Arc" version="0" id="O6">
      <dia:attribute name="obj_pos">
        <dia:point val="18.025,9.6"/>
      </dia:attribute>
      <dia:attribute name="obj_bb">
        <dia:rectangle val="17.1775,9.54334;19.502,16.4462"/>
      </dia:attribute>
      <dia:attribute name="conn_endpoints">
        <dia:point val="18.025,9.6"/>
        <dia:point val="19,16.325"/>
      </dia:attribute>
      <dia:attribute name="curve_distance">
        <dia:real val="1.2434125745193807"/>
      </dia:attribute>
      <dia:attribute name="end_arrow">
        <dia:enum val="1"/>
      </dia:attribute>
      <dia:attribute name="end_arrow_length">
        <dia:real val="0.5"/>
      </dia:attribute>
      <dia:attribute name="end_arrow_width">
        <dia:real val="0.5"/>
      </dia:attribute>
      <dia:connections>
        <dia:connection handle="0" to="O1" connection="6"/>
        <dia:connection handle="1" to="O3" connection="3"/>
      </dia:connections>
    </dia:object>
    <dia:object type="Standard - Arc" version="0" id="O7">
      <dia:attribute name="obj_pos">
        <dia:point val="21.05,7.3"/>
      </dia:attribute>
      <dia:attribute name="obj_bb">
        <dia:rectangle val="20.9934,5.40936;32.9211,9.50201"/>
      </dia:attribute>
      <dia:attribute name="conn_endpoints">
        <dia:point val="21.05,7.3"/>
        <dia:point val="32.8,9"/>
      </dia:attribute>
      <dia:attribute name="curve_distance">
        <dia:real val="-2.6353267541186884"/>
      </dia:attribute>
      <dia:attribute name="end_arrow">
        <dia:enum val="1"/>
      </dia:attribute>
      <dia:attribute name="end_arrow_length">
        <dia:real val="0.5"/>
      </dia:attribute>
      <dia:attribute name="end_arrow_width">
        <dia:real val="0.5"/>
      </dia:attribute>
      <dia:connections>
        <dia:connection handle="0" to="O1" connection="4"/>
        <dia:connection handle="1" to="O11" connection="1"/>
      </dia:connections>
    </dia:object>
    <dia:object type="Standard - Arc" version="0" id="O8">
      <dia:attribute name="obj_pos">
        <dia:point val="21.05,7.3"/>
      </dia:attribute>
      <dia:attribute name="obj_bb">
        <dia:rectangle val="20.9861,6.49382;26.0156,9.48761"/>
      </dia:attribute>
      <dia:attribute name="conn_endpoints">
        <dia:point val="21.05,7.3"/>
        <dia:point val="25.8,9"/>
      </dia:attribute>
      <dia:attribute name="curve_distance">
        <dia:real val="-1.5292225986469576"/>
      </dia:attribute>
      <dia:attribute name="end_arrow">
        <dia:enum val="1"/>
      </dia:attribute>
      <dia:attribute name="end_arrow_length">
        <dia:real val="0.5"/>
      </dia:attribute>
      <dia:attribute name="end_arrow_width">
        <dia:real val="0.5"/>
      </dia:attribute>
      <dia:connections>
        <dia:connection handle="0" to="O1" connection="4"/>
        <dia:connection handle="1" to="O9" connection="1"/>
      </dia:connections>
    </dia:object>
    <dia:group>
      <dia:object type="Standard - Box" version="0" id="O9">
        <dia:attribute name="obj_pos">
          <dia:point val="23,9"/>
        </dia:attribute>
        <dia:attribute name="obj_bb">
          <dia:rectangle val="22.95,8.95;28.65,12.3"/>
        </dia:attribute>
        <dia:attribute name="elem_corner">
          <dia:point val="23,9"/>
        </dia:attribute>
        <dia:attribute name="elem_width">
          <dia:real val="5.5999999999999979"/>
        </dia:attribute>
        <dia:attribute name="elem_height">
          <dia:real val="3.25"/>
        </dia:attribute>
        <dia:attribute name="show_background">
          <dia:boolean val="true"/>
        </dia:attribute>
      </dia:object>
      <dia:object type="Standard - Text" version="1" id="O10">
        <dia:attribute name="obj_pos">
          <dia:point val="23.75,10.375"/>
        </dia:attribute>
        <dia:attribute name="obj_bb">
          <dia:rectangle val="23.75,9.825;27.75,11.575"/>
        </dia:attribute>
        <dia:attribute name="text">
          <dia:composite type="text">
            <dia:attribute name="string">
              <dia:string>#compression
       unit#</dia:string>
            </dia:attribute>
            <dia:attribute name="font">
              <dia:font family="sans" style="0" name="Helvetica"/>
            </dia:attribute>
            <dia:attribute name="height">
              <dia:real val="0.80000000000000004"/>
            </dia:attribute>
            <dia:attribute name="pos">
              <dia:point val="23.75,10.375"/>
            </dia:attribute>
            <dia:attribute name="color">
              <dia:color val="#000000"/>
            </dia:attribute>
            <dia:attribute name="alignment">
              <dia:enum val="0"/>
            </dia:attribute>
          </dia:composite>
        </dia:attribute>
        <dia:attribute name="valign">
          <dia:enum val="3"/>
        </dia:attribute>
      </dia:object>
    </dia:group>
    <dia:group>
      <dia:object type="Standard - Box" version="0" id="O11">
        <dia:attribute name="obj_pos">
          <dia:point val="30,9"/>
        </dia:attribute>
        <dia:attribute name="obj_bb">
          <dia:rectangle val="29.95,8.95;35.65,12.3"/>
        </dia:attribute>
        <dia:attribute name="elem_corner">
          <dia:point val="30,9"/>
        </dia:attribute>
        <dia:attribute name="elem_width">
          <dia:real val="5.5999999999999979"/>
        </dia:attribute>
        <dia:attribute name="elem_height">
          <dia:real val="3.25"/>
        </dia:attribute>
        <dia:attribute name="show_background">
          <dia:boolean val="true"/>
        </dia:attribute>
      </dia:object>
      <dia:object type="Standard - Text" version="1" id="O12">
        <dia:attribute name="obj_pos">
          <dia:point val="30.4,10.525"/>
        </dia:attribute>
        <dia:attribute name="obj_bb">
          <dia:rectangle val="30.4,9.975;35.2,11.725"/>
        </dia:attribute>
        <dia:attribute name="text">
          <dia:composite type="text">
            <dia:attribute name="string">
              <dia:string>#decompression
         unit#</dia:string>
            </dia:attribute>
            <dia:attribute name="font">
              <dia:font family="sans" style="0" name="Helvetica"/>
            </dia:attribute>
            <dia:attribute name="height">
              <dia:real val="0.80000000000000004"/>
            </dia:attribute>
            <dia:attribute name="pos">
              <dia:point val="30.4,10.525"/>
            </dia:attribute>
            <dia:attribute name="color">
              <dia:color val="#000000"/>
            </dia:attribute>
            <dia:attribute name="alignment">
              <dia:enum val="0"/>
            </dia:attribute>
          </dia:composite>
        </dia:attribute>
        <dia:attribute name="valign">
          <dia:enum val="3"/>
        </dia:attribute>
      </dia:object>
    </dia:group>
    <dia:group>
      <dia:object type="Standard - Box" version="0" id="O13">
        <dia:attribute name="obj_pos">
          <dia:point val="6,6"/>
        </dia:attribute>
        <dia:attribute name="obj_bb">
          <dia:rectangle val="5.95,5.95;11.05,9"/>
        </dia:attribute>
        <dia:attribute name="elem_corner">
          <dia:point val="6,6"/>
        </dia:attribute>
        <dia:attribute name="elem_width">
          <dia:real val="4.9999999999999982"/>
        </dia:attribute>
        <dia:attribute name="elem_height">
          <dia:real val="2.9500000000000002"/>
        </dia:attribute>
        <dia:attribute name="show_background">
          <dia:boolean val="true"/>
        </dia:attribute>
      </dia:object>
      <dia:object type="Standard - Text" version="1" id="O14">
        <dia:attribute name="obj_pos">
          <dia:point val="6.85,7.61"/>
        </dia:attribute>
        <dia:attribute name="obj_bb">
          <dia:rectangle val="6.85,7.06;10.3,8.01"/>
        </dia:attribute>
        <dia:attribute name="text">
          <dia:composite type="text">
            <dia:attribute name="string">
              <dia:string>#application#</dia:string>
            </dia:attribute>
            <dia:attribute name="font">
              <dia:font family="sans" style="0" name="Helvetica"/>
            </dia:attribute>
            <dia:attribute name="height">
              <dia:real val="0.80000000000000004"/>
            </dia:attribute>
            <dia:attribute name="pos">
              <dia:point val="6.85,7.61"/>
            </dia:attribute>
            <dia:attribute name="color">
              <dia:color val="#000000"/>
            </dia:attribute>
            <dia:attribute name="alignment">
              <dia:enum val="0"/>
            </dia:attribute>
          </dia:composite>
        </dia:attribute>
        <dia:attribute name="valign">
          <dia:enum val="3"/>
        </dia:attribute>
      </dia:object>
    </dia:group>
    <dia:group>
      <dia:object type="Standard - Line" version="0" id="O15">
        <dia:attribute name="obj_pos">
          <dia:point val="11.95,10"/>
        </dia:attribute>
        <dia:attribute name="obj_bb">
          <dia:rectangle val="11.915,4.965;11.985,10.035"/>
        </dia:attribute>
        <dia:attribute name="conn_endpoints">
          <dia:point val="11.95,10"/>
          <dia:point val="11.95,5"/>
        </dia:attribute>
        <dia:attribute name="numcp">
          <dia:int val="1"/>
        </dia:attribute>
        <dia:attribute name="line_width">
          <dia:real val="0.070000000000000007"/>
        </dia:attribute>
      </dia:object>
      <dia:object type="Standard - Text" version="1" id="O16">
        <dia:attribute name="obj_pos">
          <dia:point val="12.25,6"/>
        </dia:attribute>
        <dia:attribute name="obj_bb">
          <dia:rectangle val="12.25,5.45;13.2,6.4"/>
        </dia:attribute>
        <dia:attribute name="text">
          <dia:composite type="text">
            <dia:attribute name="string">
              <dia:string>#API#</dia:string>
            </dia:attribute>
            <dia:attribute name="font">
              <dia:font family="sans" style="0" name="Helvetica"/>
            </dia:attribute>
            <dia:attribute name="height">
              <dia:real val="0.80000000000000004"/>
            </dia:attribute>
            <dia:attribute name="pos">
              <dia:point val="12.25,6"/>
            </dia:attribute>
            <dia:attribute name="color">
              <dia:color val="#000000"/>
            </dia:attribute>
            <dia:attribute name="alignment">
              <dia:enum val="0"/>
            </dia:attribute>
          </dia:composite>
        </dia:attribute>
        <dia:attribute name="valign">
          <dia:enum val="3"/>
        </dia:attribute>
      </dia:object>
    </dia:group>
    <dia:group>
      <dia:object type="Standard - Line" version="0" id="O17">
        <dia:attribute name="obj_pos">
          <dia:point val="32,7.4"/>
        </dia:attribute>
        <dia:attribute name="obj_bb">
          <dia:rectangle val="23.965,7.365;32.035,7.435"/>
        </dia:attribute>
        <dia:attribute name="conn_endpoints">
          <dia:point val="32,7.4"/>
          <dia:point val="24,7.4"/>
        </dia:attribute>
        <dia:attribute name="numcp">
          <dia:int val="1"/>
        </dia:attribute>
        <dia:attribute name="line_width">
          <dia:real val="0.070000000000000007"/>
        </dia:attribute>
      </dia:object>
      <dia:object type="Standard - Text" version="1" id="O18">
        <dia:attribute name="obj_pos">
          <dia:point val="27,8.4"/>
        </dia:attribute>
        <dia:attribute name="obj_bb">
          <dia:rectangle val="27,7.85;28.1,8.8"/>
        </dia:attribute>
        <dia:attribute name="text">
          <dia:composite type="text">
            <dia:attribute name="string">
              <dia:string>#IF 2#</dia:string>
            </dia:attribute>
            <dia:attribute name="font">
              <dia:font family="sans" style="0" name="Helvetica"/>
            </dia:attribute>
            <dia:attribute name="height">
              <dia:real val="0.80000000000000004"/>
            </dia:attribute>
            <dia:attribute name="pos">
              <dia:point val="27,8.4"/>
            </dia:attribute>
            <dia:attribute name="color">
              <dia:color val="#000000"/>
            </dia:attribute>
            <dia:attribute name="alignment">
              <dia:enum val="0"/>
            </dia:attribute>
          </dia:composite>
        </dia:attribute>
        <dia:attribute name="valign">
          <dia:enum val="3"/>
        </dia:attribute>
      </dia:object>
    </dia:group>
    <dia:object type="Standard - Arc" version="0" id="O19">
      <dia:attribute name="obj_pos">
        <dia:point val="25.8,12.25"/>
      </dia:attribute>
      <dia:attribute name="obj_bb">
        <dia:rectangle val="23.5543,12.1808;25.8692,15.3157"/>
      </dia:attribute>
      <dia:attribute name="conn_endpoints">
        <dia:point val="25.8,12.25"/>
        <dia:point val="24,15"/>
      </dia:attribute>
      <dia:attribute name="curve_distance">
        <dia:real val="-0.28904234219981662"/>
      </dia:attribute>
      <dia:attribute name="end_arrow">
        <dia:enum val="1"/>
      </dia:attribute>
      <dia:attribute name="end_arrow_length">
        <dia:real val="0.5"/>
      </dia:attribute>
      <dia:attribute name="end_arrow_width">
        <dia:real val="0.5"/>
      </dia:attribute>
      <dia:connections>
        <dia:connection handle="0" to="O9" connection="6"/>
        <dia:connection handle="1" to="O3" connection="2"/>
      </dia:connections>
    </dia:object>
    <dia:object type="Standard - Arc" version="0" id="O20">
      <dia:attribute name="obj_pos">
        <dia:point val="32.8,12.25"/>
      </dia:attribute>
      <dia:attribute name="obj_bb">
        <dia:rectangle val="23.7445,12.1836;32.8664,16.6837"/>
      </dia:attribute>
      <dia:attribute name="conn_endpoints">
        <dia:point val="32.8,12.25"/>
        <dia:point val="24,16.325"/>
      </dia:attribute>
      <dia:attribute name="curve_distance">
        <dia:real val="-1.8398340771602912"/>
      </dia:attribute>
      <dia:attribute name="end_arrow">
        <dia:enum val="1"/>
      </dia:attribute>
      <dia:attribute name="end_arrow_length">
        <dia:real val="0.5"/>
      </dia:attribute>
      <dia:attribute name="end_arrow_width">
        <dia:real val="0.5"/>
      </dia:attribute>
      <dia:connections>
        <dia:connection handle="0" to="O11" connection="6"/>
        <dia:connection handle="1" to="O3" connection="4"/>
      </dia:connections>
    </dia:object>
    <dia:group>
      <dia:object type="Standard - Line" version="0" id="O21">
        <dia:attribute name="obj_pos">
          <dia:point val="24.2,13.4"/>
        </dia:attribute>
        <dia:attribute name="obj_bb">
          <dia:rectangle val="24.1541,13.3541;30.9959,16.2959"/>
        </dia:attribute>
        <dia:attribute name="conn_endpoints">
          <dia:point val="24.2,13.4"/>
          <dia:point val="30.95,16.25"/>
        </dia:attribute>
        <dia:attribute name="numcp">
          <dia:int val="1"/>
        </dia:attribute>
        <dia:attribute name="line_width">
          <dia:real val="0.070000000000000007"/>
        </dia:attribute>
      </dia:object>
      <dia:object type="Standard - Text" version="1" id="O22">
        <dia:attribute name="obj_pos">
          <dia:point val="29.55,17"/>
        </dia:attribute>
        <dia:attribute name="obj_bb">
          <dia:rectangle val="29.55,16.45;30.65,17.4"/>
        </dia:attribute>
        <dia:attribute name="text">
          <dia:composite type="text">
            <dia:attribute name="string">
              <dia:string>#IF 3#</dia:string>
            </dia:attribute>
            <dia:attribute name="font">
              <dia:font family="sans" style="0" name="Helvetica"/>
            </dia:attribute>
            <dia:attribute name="height">
              <dia:real val="0.80000000000000004"/>
            </dia:attribute>
            <dia:attribute name="pos">
              <dia:point val="29.55,17"/>
            </dia:attribute>
            <dia:attribute name="color">
              <dia:color val="#000000"/>
            </dia:attribute>
            <dia:attribute name="alignment">
              <dia:enum val="0"/>
            </dia:attribute>
          </dia:composite>
        </dia:attribute>
        <dia:attribute name="valign">
          <dia:enum val="3"/>
        </dia:attribute>
      </dia:object>
    </dia:group>
    <dia:group>
      <dia:object type="Standard - Line" version="0" id="O23">
        <dia:attribute name="obj_pos">
          <dia:point val="19.95,12.9"/>
        </dia:attribute>
        <dia:attribute name="obj_bb">
          <dia:rectangle val="15.915,12.865;19.985,12.935"/>
        </dia:attribute>
        <dia:attribute name="conn_endpoints">
          <dia:point val="19.95,12.9"/>
          <dia:point val="15.95,12.9"/>
        </dia:attribute>
        <dia:attribute name="numcp">
          <dia:int val="1"/>
        </dia:attribute>
        <dia:attribute name="line_width">
          <dia:real val="0.070000000000000007"/>
        </dia:attribute>
      </dia:object>
      <dia:object type="Standard - Text" version="1" id="O24">
        <dia:attribute name="obj_pos">
          <dia:point val="18.95,13.9"/>
        </dia:attribute>
        <dia:attribute name="obj_bb">
          <dia:rectangle val="18.95,13.35;20.05,14.3"/>
        </dia:attribute>
        <dia:attribute name="text">
          <dia:composite type="text">
            <dia:attribute name="string">
              <dia:string>#IF 1#</dia:string>
            </dia:attribute>
            <dia:attribute name="font">
              <dia:font family="sans" style="0" name="Helvetica"/>
            </dia:attribute>
            <dia:attribute name="height">
              <dia:real val="0.80000000000000004"/>
            </dia:attribute>
            <dia:attribute name="pos">
              <dia:point val="18.95,13.9"/>
            </dia:attribute>
            <dia:attribute name="color">
              <dia:color val="#000000"/>
            </dia:attribute>
            <dia:attribute name="alignment">
              <dia:enum val="0"/>
            </dia:attribute>
          </dia:composite>
        </dia:attribute>
        <dia:attribute name="valign">
          <dia:enum val="3"/>
        </dia:attribute>
      </dia:object>
    </dia:group>
    <dia:group>
      <dia:object type="Standard - Box" version="0" id="O25">
        <dia:attribute name="obj_pos">
          <dia:point val="38,7"/>
        </dia:attribute>
        <dia:attribute name="obj_bb">
          <dia:rectangle val="37.95,6.95;52.05,14.05"/>
        </dia:attribute>
        <dia:attribute name="elem_corner">
          <dia:point val="38,7"/>
        </dia:attribute>
        <dia:attribute name="elem_width">
          <dia:real val="14"/>
        </dia:attribute>
        <dia:attribute name="elem_height">
          <dia:real val="7"/>
        </dia:attribute>
        <dia:attribute name="show_background">
          <dia:boolean val="true"/>
        </dia:attribute>
      </dia:object>
      <dia:object type="Standard - Text" version="1" id="O26">
        <dia:attribute name="obj_pos">
          <dia:point val="39,10"/>
        </dia:attribute>
        <dia:attribute name="obj_bb">
          <dia:rectangle val="39,9.45;39.95,10.4"/>
        </dia:attribute>
        <dia:attribute name="text">
          <dia:composite type="text">
            <dia:attribute name="string">
              <dia:string>#API#</dia:string>
            </dia:attribute>
            <dia:attribute name="font">
              <dia:font family="sans" style="8" name="Helvetica-Oblique"/>
            </dia:attribute>
            <dia:attribute name="height">
              <dia:real val="0.80000000000000004"/>
            </dia:attribute>
            <dia:attribute name="pos">
              <dia:point val="39,10"/>
            </dia:attribute>
            <dia:attribute name="color">
              <dia:color val="#000000"/>
            </dia:attribute>
            <dia:attribute name="alignment">
              <dia:enum val="0"/>
            </dia:attribute>
          </dia:composite>
        </dia:attribute>
        <dia:attribute name="valign">
          <dia:enum val="3"/>
        </dia:attribute>
      </dia:object>
      <dia:object type="Standard - Text" version="1" id="O27">
        <dia:attribute name="obj_pos">
          <dia:point val="39,11"/>
        </dia:attribute>
        <dia:attribute name="obj_bb">
          <dia:rectangle val="39,10.45;40.15,11.4"/>
        </dia:attribute>
        <dia:attribute name="text">
          <dia:composite type="text">
            <dia:attribute name="string">
              <dia:string>#IF 1#</dia:string>
            </dia:attribute>
            <dia:attribute name="font">
              <dia:font family="sans" style="8" name="Helvetica-Oblique"/>
            </dia:attribute>
            <dia:attribute name="height">
              <dia:real val="0.80000000000000004"/>
            </dia:attribute>
            <dia:attribute name="pos">
              <dia:point val="39,11"/>
            </dia:attribute>
            <dia:attribute name="color">
              <dia:color val="#000000"/>
            </dia:attribute>
            <dia:attribute name="alignment">
              <dia:enum val="0"/>
            </dia:attribute>
          </dia:composite>
        </dia:attribute>
        <dia:attribute name="valign">
          <dia:enum val="3"/>
        </dia:attribute>
      </dia:object>
      <dia:object type="Standard - Text" version="1" id="O28">
        <dia:attribute name="obj_pos">
          <dia:point val="39,12"/>
        </dia:attribute>
        <dia:attribute name="obj_bb">
          <dia:rectangle val="39,11.45;40.15,12.4"/>
        </dia:attribute>
        <dia:attribute name="text">
          <dia:composite type="text">
            <dia:attribute name="string">
              <dia:string>#IF 2#</dia:string>
            </dia:attribute>
            <dia:attribute name="font">
              <dia:font family="sans" style="8" name="Helvetica-Oblique"/>
            </dia:attribute>
            <dia:attribute name="height">
              <dia:real val="0.80000000000000004"/>
            </dia:attribute>
            <dia:attribute name="pos">
              <dia:point val="39,12"/>
            </dia:attribute>
            <dia:attribute name="color">
              <dia:color val="#000000"/>
            </dia:attribute>
            <dia:attribute name="alignment">
              <dia:enum val="0"/>
            </dia:attribute>
          </dia:composite>
        </dia:attribute>
        <dia:attribute name="valign">
          <dia:enum val="3"/>
        </dia:attribute>
      </dia:object>
      <dia:object type="Standard - Text" version="1" id="O29">
        <dia:attribute name="obj_pos">
          <dia:point val="39,13"/>
        </dia:attribute>
        <dia:attribute name="obj_bb">
          <dia:rectangle val="39,12.45;40.15,13.4"/>
        </dia:attribute>
        <dia:attribute name="text">
          <dia:composite type="text">
            <dia:attribute name="string">
              <dia:string>#IF 3#</dia:string>
            </dia:attribute>
            <dia:attribute name="font">
              <dia:font family="sans" style="8" name="Helvetica-Oblique"/>
            </dia:attribute>
            <dia:attribute name="height">
              <dia:real val="0.80000000000000004"/>
            </dia:attribute>
            <dia:attribute name="pos">
              <dia:point val="39,13"/>
            </dia:attribute>
            <dia:attribute name="color">
              <dia:color val="#000000"/>
            </dia:attribute>
            <dia:attribute name="alignment">
              <dia:enum val="0"/>
            </dia:attribute>
          </dia:composite>
        </dia:attribute>
        <dia:attribute name="valign">
          <dia:enum val="3"/>
        </dia:attribute>
      </dia:object>
      <dia:object type="Standard - Text" version="1" id="O30">
        <dia:attribute name="obj_pos">
          <dia:point val="41,10"/>
        </dia:attribute>
        <dia:attribute name="obj_bb">
          <dia:rectangle val="41,9.45;49.9,10.4"/>
        </dia:attribute>
        <dia:attribute name="text">
          <dia:composite type="text">
            <dia:attribute name="string">
              <dia:string>#outer interface to the library#</dia:string>
            </dia:attribute>
            <dia:attribute name="font">
              <dia:font family="sans" style="0" name="Helvetica"/>
            </dia:attribute>
            <dia:attribute name="height">
              <dia:real val="0.80000000000000004"/>
            </dia:attribute>
            <dia:attribute name="pos">
              <dia:point val="41,10"/>
            </dia:attribute>
            <dia:attribute name="color">
              <dia:color val="#000000"/>
            </dia:attribute>
            <dia:attribute name="alignment">
              <dia:enum val="0"/>
            </dia:attribute>
          </dia:composite>
        </dia:attribute>
        <dia:attribute name="valign">
          <dia:enum val="3"/>
        </dia:attribute>
      </dia:object>
      <dia:object type="Standard - Text" version="1" id="O31">
        <dia:attribute name="obj_pos">
          <dia:point val="41,11"/>
        </dia:attribute>
        <dia:attribute name="obj_bb">
          <dia:rectangle val="41,10.45;51.05,11.4"/>
        </dia:attribute>
        <dia:attribute name="text">
          <dia:composite type="text">
            <dia:attribute name="string">
              <dia:string>#memory pointers and file names#</dia:string>
            </dia:attribute>
            <dia:attribute name="font">
              <dia:font family="sans" style="0" name="Helvetica"/>
            </dia:attribute>
            <dia:attribute name="height">
              <dia:real val="0.80000000000000004"/>
            </dia:attribute>
            <dia:attribute name="pos">
              <dia:point val="41,11"/>
            </dia:attribute>
            <dia:attribute name="color">
              <dia:color val="#000000"/>
            </dia:attribute>
            <dia:attribute name="alignment">
              <dia:enum val="0"/>
            </dia:attribute>
          </dia:composite>
        </dia:attribute>
        <dia:attribute name="valign">
          <dia:enum val="3"/>
        </dia:attribute>
      </dia:object>
      <dia:object type="Standard - Text" version="1" id="O32">
        <dia:attribute name="obj_pos">
          <dia:point val="41,12"/>
        </dia:attribute>
        <dia:attribute name="obj_bb">
          <dia:rectangle val="41,11.45;49.7,12.4"/>
        </dia:attribute>
        <dia:attribute name="text">
          <dia:composite type="text">
            <dia:attribute name="string">
              <dia:string>#(de)compression unit setup#</dia:string>
            </dia:attribute>
            <dia:attribute name="font">
              <dia:font family="sans" style="0" name="Helvetica"/>
            </dia:attribute>
            <dia:attribute name="height">
              <dia:real val="0.80000000000000004"/>
            </dia:attribute>
            <dia:attribute name="pos">
              <dia:point val="41,12"/>
            </dia:attribute>
            <dia:attribute name="color">
              <dia:color val="#000000"/>
            </dia:attribute>
            <dia:attribute name="alignment">
              <dia:enum val="0"/>
            </dia:attribute>
          </dia:composite>
        </dia:attribute>
        <dia:attribute name="valign">
          <dia:enum val="3"/>
        </dia:attribute>
      </dia:object>
      <dia:object type="Standard - Text" version="1" id="O33">
        <dia:attribute name="obj_pos">
          <dia:point val="41,13"/>
        </dia:attribute>
        <dia:attribute name="obj_bb">
          <dia:rectangle val="41,12.45;46.5,13.4"/>
        </dia:attribute>
        <dia:attribute name="text">
          <dia:composite type="text">
            <dia:attribute name="string">
              <dia:string>#I/O data transfers#</dia:string>
            </dia:attribute>
            <dia:attribute name="font">
              <dia:font family="sans" style="0" name="Helvetica"/>
            </dia:attribute>
            <dia:attribute name="height">
              <dia:real val="0.80000000000000004"/>
            </dia:attribute>
            <dia:attribute name="pos">
              <dia:point val="41,13"/>
            </dia:attribute>
            <dia:attribute name="color">
              <dia:color val="#000000"/>
            </dia:attribute>
            <dia:attribute name="alignment">
              <dia:enum val="0"/>
            </dia:attribute>
          </dia:composite>
        </dia:attribute>
        <dia:attribute name="valign">
          <dia:enum val="3"/>
        </dia:attribute>
      </dia:object>
      <dia:group>
        <dia:object type="Standard - Text" version="1" id="O34">
          <dia:attribute name="obj_pos">
            <dia:point val="39,8"/>
          </dia:attribute>
          <dia:attribute name="obj_bb">
            <dia:rectangle val="39,7.45;42.35,8.4"/>
          </dia:attribute>
          <dia:attribute name="text">
            <dia:composite type="text">
              <dia:attribute name="string">
                <dia:string>#Interfaces:#</dia:string>
              </dia:attribute>
              <dia:attribute name="font">
                <dia:font family="sans" style="0" name="Helvetica"/>
              </dia:attribute>
              <dia:attribute name="height">
                <dia:real val="0.80000000000000004"/>
              </dia:attribute>
              <dia:attribute name="pos">
                <dia:point val="39,8"/>
              </dia:attribute>
              <dia:attribute name="color">
                <dia:color val="#000000"/>
              </dia:attribute>
              <dia:attribute name="alignment">
                <dia:enum val="0"/>
              </dia:attribute>
            </dia:composite>
          </dia:attribute>
          <dia:attribute name="valign">
            <dia:enum val="3"/>
          </dia:attribute>
        </dia:object>
        <dia:object type="Standard - Line" version="0" id="O35">
          <dia:attribute name="obj_pos">
            <dia:point val="39.1,8.25"/>
          </dia:attribute>
          <dia:attribute name="obj_bb">
            <dia:rectangle val="39.05,8.2;42.15,8.3"/>
          </dia:attribute>
          <dia:attribute name="conn_endpoints">
            <dia:point val="39.1,8.25"/>
            <dia:point val="42.1,8.25"/>
          </dia:attribute>
          <dia:attribute name="numcp">
            <dia:int val="1"/>
          </dia:attribute>
        </dia:object>
      </dia:group>
    </dia:group>
    <dia:object type="Standard - Text" version="1" id="O36">
      <dia:attribute name="obj_pos">
        <dia:point val="39.65,5.1"/>
      </dia:attribute>
      <dia:attribute name="obj_bb">
        <dia:rectangle val="39.65,4.5325;41.5675,5.535"/>
      </dia:attribute>
      <dia:attribute name="text">
        <dia:composite type="text">
          <dia:attribute name="string">
            <dia:string>#library#</dia:string>
          </dia:attribute>
          <dia:attribute name="font">
            <dia:font family="sans" style="0" name="Helvetica"/>
          </dia:attribute>
          <dia:attribute name="height">
            <dia:real val="0.80000000000000004"/>
          </dia:attribute>
          <dia:attribute name="pos">
            <dia:point val="39.65,5.1"/>
          </dia:attribute>
          <dia:attribute name="color">
            <dia:color val="#525252"/>
          </dia:attribute>
          <dia:attribute name="alignment">
            <dia:enum val="0"/>
          </dia:attribute>
        </dia:composite>
      </dia:attribute>
      <dia:attribute name="valign">
        <dia:enum val="3"/>
      </dia:attribute>
    </dia:object>
    <dia:object type="Standard - Line" version="0" id="O37">
      <dia:attribute name="obj_pos">
        <dia:point val="36.7071,4.29289"/>
      </dia:attribute>
      <dia:attribute name="obj_bb">
        <dia:rectangle val="36.6446,4.23038;39.0625,5.06251"/>
      </dia:attribute>
      <dia:attribute name="conn_endpoints">
        <dia:point val="36.7071,4.29289"/>
        <dia:point val="39,5"/>
      </dia:attribute>
      <dia:attribute name="numcp">
        <dia:int val="1"/>
      </dia:attribute>
      <dia:attribute name="line_color">
        <dia:color val="#525252"/>
      </dia:attribute>
      <dia:attribute name="line_style">
        <dia:enum val="4"/>
      </dia:attribute>
      <dia:connections>
        <dia:connection handle="0" to="O0" connection="2"/>
      </dia:connections>
    </dia:object>
  </dia:layer>
</dia:diagram>
