<?xml version="1.0" encoding="UTF-8"?>
<dia:diagram xmlns:dia="http://www.lysator.liu.se/~alla/dia/">
  <dia:diagramdata>
    <dia:attribute name="background">
      <dia:color val="#ffffff"/>
    </dia:attribute>
    <dia:attribute name="pagebreak">
      <dia:color val="#000099"/>
    </dia:attribute>
    <dia:attribute name="paper">
      <dia:composite type="paper">
        <dia:attribute name="name">
          <dia:string>#A4#</dia:string>
        </dia:attribute>
        <dia:attribute name="tmargin">
          <dia:real val="2.8222000598907471"/>
        </dia:attribute>
        <dia:attribute name="bmargin">
          <dia:real val="2.8222000598907471"/>
        </dia:attribute>
        <dia:attribute name="lmargin">
          <dia:real val="2.8222000598907471"/>
        </dia:attribute>
        <dia:attribute name="rmargin">
          <dia:real val="2.8222000598907471"/>
        </dia:attribute>
        <dia:attribute name="is_portrait">
          <dia:boolean val="true"/>
        </dia:attribute>
        <dia:attribute name="scaling">
          <dia:real val="1"/>
        </dia:attribute>
        <dia:attribute name="fitto">
          <dia:boolean val="false"/>
        </dia:attribute>
      </dia:composite>
    </dia:attribute>
    <dia:attribute name="grid">
      <dia:composite type="grid">
        <dia:attribute name="width_x">
          <dia:real val="1"/>
        </dia:attribute>
        <dia:attribute name="width_y">
          <dia:real val="1"/>
        </dia:attribute>
        <dia:attribute name="visible_x">
          <dia:int val="1"/>
        </dia:attribute>
        <dia:attribute name="visible_y">
          <dia:int val="1"/>
        </dia:attribute>
        <dia:composite type="color"/>
      </dia:composite>
    </dia:attribute>
    <dia:attribute name="color">
      <dia:color val="#d8e5e5"/>
    </dia:attribute>
    <dia:attribute name="guides">
      <dia:composite type="guides">
        <dia:attribute name="hguides"/>
        <dia:attribute name="vguides"/>
      </dia:composite>
    </dia:attribute>
  </dia:diagramdata>
  <dia:layer name="Background" visible="true">
    <dia:object type="UML - Class" version="0" id="O0">
      <dia:attribute name="obj_pos">
        <dia:point val="18.55,11.6"/>
      </dia:attribute>
      <dia:attribute name="obj_bb">
        <dia:rectangle val="18.5,11.55;40.8,17.45"/>
      </dia:attribute>
      <dia:attribute name="elem_corner">
        <dia:point val="18.55,11.6"/>
      </dia:attribute>
      <dia:attribute name="elem_width">
        <dia:real val="22.199999999999999"/>
      </dia:attribute>
      <dia:attribute name="elem_height">
        <dia:real val="5.8000000000000007"/>
      </dia:attribute>
      <dia:attribute name="name">
        <dia:string>#CompMethod#</dia:string>
      </dia:attribute>
      <dia:attribute name="stereotype">
        <dia:string>##</dia:string>
      </dia:attribute>
      <dia:attribute name="comment">
        <dia:string>##</dia:string>
      </dia:attribute>
      <dia:attribute name="abstract">
        <dia:boolean val="true"/>
      </dia:attribute>
      <dia:attribute name="suppress_attributes">
        <dia:boolean val="false"/>
      </dia:attribute>
      <dia:attribute name="suppress_operations">
        <dia:boolean val="false"/>
      </dia:attribute>
      <dia:attribute name="visible_attributes">
        <dia:boolean val="true"/>
      </dia:attribute>
      <dia:attribute name="visible_operations">
        <dia:boolean val="true"/>
      </dia:attribute>
      <dia:attribute name="visible_comments">
        <dia:boolean val="false"/>
      </dia:attribute>
      <dia:attribute name="wrap_operations">
        <dia:boolean val="true"/>
      </dia:attribute>
      <dia:attribute name="wrap_after_char">
        <dia:int val="40"/>
      </dia:attribute>
      <dia:attribute name="comment_line_length">
        <dia:int val="40"/>
      </dia:attribute>
      <dia:attribute name="comment_tagging">
        <dia:boolean val="false"/>
      </dia:attribute>
      <dia:attribute name="line_color">
        <dia:color val="#000000"/>
      </dia:attribute>
      <dia:attribute name="fill_color">
        <dia:color val="#ffffff"/>
      </dia:attribute>
      <dia:attribute name="text_color">
        <dia:color val="#000000"/>
      </dia:attribute>
      <dia:attribute name="normal_font">
        <dia:font family="monospace" style="0" name="Courier"/>
      </dia:attribute>
      <dia:attribute name="abstract_font">
        <dia:font family="monospace" style="88" name="Courier-BoldOblique"/>
      </dia:attribute>
      <dia:attribute name="polymorphic_font">
        <dia:font family="monospace" style="8" name="Courier-Oblique"/>
      </dia:attribute>
      <dia:attribute name="classname_font">
        <dia:font family="sans" style="80" name="Helvetica-Bold"/>
      </dia:attribute>
      <dia:attribute name="abstract_classname_font">
        <dia:font family="sans" style="88" name="Helvetica-BoldOblique"/>
      </dia:attribute>
      <dia:attribute name="comment_font">
        <dia:font family="sans" style="8" name="Helvetica-Oblique"/>
      </dia:attribute>
      <dia:attribute name="normal_font_height">
        <dia:real val="0.80000000000000004"/>
      </dia:attribute>
      <dia:attribute name="polymorphic_font_height">
        <dia:real val="0.80000000000000004"/>
      </dia:attribute>
      <dia:attribute name="abstract_font_height">
        <dia:real val="0.80000000000000004"/>
      </dia:attribute>
      <dia:attribute name="classname_font_height">
        <dia:real val="1"/>
      </dia:attribute>
      <dia:attribute name="abstract_classname_font_height">
        <dia:real val="1"/>
      </dia:attribute>
      <dia:attribute name="comment_font_height">
        <dia:real val="0.69999999999999996"/>
      </dia:attribute>
      <dia:attribute name="attributes">
        <dia:composite type="umlattribute">
          <dia:attribute name="name">
            <dia:string>#operation#</dia:string>
          </dia:attribute>
          <dia:attribute name="type">
            <dia:string>#exc_operation_e#</dia:string>
          </dia:attribute>
          <dia:attribute name="value">
            <dia:string>##</dia:string>
          </dia:attribute>
          <dia:attribute name="comment">
            <dia:string>#type of operation, basically compression or decompression#</dia:string>
          </dia:attribute>
          <dia:attribute name="visibility">
            <dia:enum val="0"/>
          </dia:attribute>
          <dia:attribute name="abstract">
            <dia:boolean val="false"/>
          </dia:attribute>
          <dia:attribute name="class_scope">
            <dia:boolean val="false"/>
          </dia:attribute>
        </dia:composite>
      </dia:attribute>
      <dia:attribute name="operations">
        <dia:composite type="umloperation">
          <dia:attribute name="name">
            <dia:string>#connectIOModule#</dia:string>
          </dia:attribute>
          <dia:attribute name="stereotype">
            <dia:string>##</dia:string>
          </dia:attribute>
          <dia:attribute name="type">
            <dia:string>#error_t#</dia:string>
          </dia:attribute>
          <dia:attribute name="visibility">
            <dia:enum val="0"/>
          </dia:attribute>
          <dia:attribute name="comment">
            <dia:string>##</dia:string>
          </dia:attribute>
          <dia:attribute name="abstract">
            <dia:boolean val="false"/>
          </dia:attribute>
          <dia:attribute name="inheritance_type">
            <dia:enum val="2"/>
          </dia:attribute>
          <dia:attribute name="query">
            <dia:boolean val="false"/>
          </dia:attribute>
          <dia:attribute name="class_scope">
            <dia:boolean val="false"/>
          </dia:attribute>
          <dia:attribute name="parameters">
            <dia:composite type="umlparameter">
              <dia:attribute name="name">
                <dia:string>#module#</dia:string>
              </dia:attribute>
              <dia:attribute name="type">
                <dia:string>#IOModule&amp;#</dia:string>
              </dia:attribute>
              <dia:attribute name="value">
                <dia:string>##</dia:string>
              </dia:attribute>
              <dia:attribute name="comment">
                <dia:string>##</dia:string>
              </dia:attribute>
              <dia:attribute name="kind">
                <dia:enum val="1"/>
              </dia:attribute>
            </dia:composite>
            <dia:composite type="umlparameter">
              <dia:attribute name="name">
                <dia:string>#purpose#</dia:string>
              </dia:attribute>
              <dia:attribute name="type">
                <dia:string>#enum#</dia:string>
              </dia:attribute>
              <dia:attribute name="value">
                <dia:string>##</dia:string>
              </dia:attribute>
              <dia:attribute name="comment">
                <dia:string>##</dia:string>
              </dia:attribute>
              <dia:attribute name="kind">
                <dia:enum val="1"/>
              </dia:attribute>
            </dia:composite>
          </dia:attribute>
        </dia:composite>
        <dia:composite type="umloperation">
          <dia:attribute name="name">
            <dia:string>#setParameter#</dia:string>
          </dia:attribute>
          <dia:attribute name="stereotype">
            <dia:string>##</dia:string>
          </dia:attribute>
          <dia:attribute name="type">
            <dia:string>#error_t#</dia:string>
          </dia:attribute>
          <dia:attribute name="visibility">
            <dia:enum val="0"/>
          </dia:attribute>
          <dia:attribute name="comment">
            <dia:string>##</dia:string>
          </dia:attribute>
          <dia:attribute name="abstract">
            <dia:boolean val="false"/>
          </dia:attribute>
          <dia:attribute name="inheritance_type">
            <dia:enum val="2"/>
          </dia:attribute>
          <dia:attribute name="query">
            <dia:boolean val="false"/>
          </dia:attribute>
          <dia:attribute name="class_scope">
            <dia:boolean val="false"/>
          </dia:attribute>
          <dia:attribute name="parameters">
            <dia:composite type="umlparameter">
              <dia:attribute name="name">
                <dia:string>#parameter#</dia:string>
              </dia:attribute>
              <dia:attribute name="type">
                <dia:string>#enum#</dia:string>
              </dia:attribute>
              <dia:attribute name="value">
                <dia:string>##</dia:string>
              </dia:attribute>
              <dia:attribute name="comment">
                <dia:string>##</dia:string>
              </dia:attribute>
              <dia:attribute name="kind">
                <dia:enum val="1"/>
              </dia:attribute>
            </dia:composite>
            <dia:composite type="umlparameter">
              <dia:attribute name="name">
                <dia:string>#value#</dia:string>
              </dia:attribute>
              <dia:attribute name="type">
                <dia:string>#void*#</dia:string>
              </dia:attribute>
              <dia:attribute name="value">
                <dia:string>##</dia:string>
              </dia:attribute>
              <dia:attribute name="comment">
                <dia:string>##</dia:string>
              </dia:attribute>
              <dia:attribute name="kind">
                <dia:enum val="1"/>
              </dia:attribute>
            </dia:composite>
          </dia:attribute>
        </dia:composite>
        <dia:composite type="umloperation">
          <dia:attribute name="name">
            <dia:string>#getValue#</dia:string>
          </dia:attribute>
          <dia:attribute name="stereotype">
            <dia:string>##</dia:string>
          </dia:attribute>
          <dia:attribute name="type">
            <dia:string>#error_t#</dia:string>
          </dia:attribute>
          <dia:attribute name="visibility">
            <dia:enum val="0"/>
          </dia:attribute>
          <dia:attribute name="comment">
            <dia:string>#retrieve any value that the compression method may provide (like compression statistics, etc.)#</dia:string>
          </dia:attribute>
          <dia:attribute name="abstract">
            <dia:boolean val="false"/>
          </dia:attribute>
          <dia:attribute name="inheritance_type">
            <dia:enum val="2"/>
          </dia:attribute>
          <dia:attribute name="query">
            <dia:boolean val="false"/>
          </dia:attribute>
          <dia:attribute name="class_scope">
            <dia:boolean val="false"/>
          </dia:attribute>
          <dia:attribute name="parameters">
            <dia:composite type="umlparameter">
              <dia:attribute name="name">
                <dia:string>#parameter#</dia:string>
              </dia:attribute>
              <dia:attribute name="type">
                <dia:string>#enum#</dia:string>
              </dia:attribute>
              <dia:attribute name="value">
                <dia:string>##</dia:string>
              </dia:attribute>
              <dia:attribute name="comment">
                <dia:string>##</dia:string>
              </dia:attribute>
              <dia:attribute name="kind">
                <dia:enum val="1"/>
              </dia:attribute>
            </dia:composite>
            <dia:composite type="umlparameter">
              <dia:attribute name="name">
                <dia:string>#value#</dia:string>
              </dia:attribute>
              <dia:attribute name="type">
                <dia:string>#void*#</dia:string>
              </dia:attribute>
              <dia:attribute name="value">
                <dia:string>##</dia:string>
              </dia:attribute>
              <dia:attribute name="comment">
                <dia:string>##</dia:string>
              </dia:attribute>
              <dia:attribute name="kind">
                <dia:enum val="2"/>
              </dia:attribute>
            </dia:composite>
          </dia:attribute>
        </dia:composite>
        <dia:composite type="umloperation">
          <dia:attribute name="name">
            <dia:string>#compress#</dia:string>
          </dia:attribute>
          <dia:attribute name="stereotype">
            <dia:string>##</dia:string>
          </dia:attribute>
          <dia:attribute name="type">
            <dia:string>#error_t#</dia:string>
          </dia:attribute>
          <dia:attribute name="visibility">
            <dia:enum val="0"/>
          </dia:attribute>
          <dia:attribute name="comment">
            <dia:string>##</dia:string>
          </dia:attribute>
          <dia:attribute name="abstract">
            <dia:boolean val="false"/>
          </dia:attribute>
          <dia:attribute name="inheritance_type">
            <dia:enum val="2"/>
          </dia:attribute>
          <dia:attribute name="query">
            <dia:boolean val="false"/>
          </dia:attribute>
          <dia:attribute name="class_scope">
            <dia:boolean val="false"/>
          </dia:attribute>
          <dia:attribute name="parameters"/>
        </dia:composite>
      </dia:attribute>
      <dia:attribute name="template">
        <dia:boolean val="false"/>
      </dia:attribute>
      <dia:attribute name="templates"/>
    </dia:object>
    <dia:object type="UML - Class" version="0" id="O1">
      <dia:attribute name="obj_pos">
        <dia:point val="11.1,22.6"/>
      </dia:attribute>
      <dia:attribute name="obj_bb">
        <dia:rectangle val="11.05,22.55;16.55,25.65"/>
      </dia:attribute>
      <dia:attribute name="elem_corner">
        <dia:point val="11.1,22.6"/>
      </dia:attribute>
      <dia:attribute name="elem_width">
        <dia:real val="5.4000000000000004"/>
      </dia:attribute>
      <dia:attribute name="elem_height">
        <dia:real val="3"/>
      </dia:attribute>
      <dia:attribute name="name">
        <dia:string>#DCA#</dia:string>
      </dia:attribute>
      <dia:attribute name="stereotype">
        <dia:string>#CompMethod#</dia:string>
      </dia:attribute>
      <dia:attribute name="comment">
        <dia:string>##</dia:string>
      </dia:attribute>
      <dia:attribute name="abstract">
        <dia:boolean val="false"/>
      </dia:attribute>
      <dia:attribute name="suppress_attributes">
        <dia:boolean val="false"/>
      </dia:attribute>
      <dia:attribute name="suppress_operations">
        <dia:boolean val="false"/>
      </dia:attribute>
      <dia:attribute name="visible_attributes">
        <dia:boolean val="true"/>
      </dia:attribute>
      <dia:attribute name="visible_operations">
        <dia:boolean val="true"/>
      </dia:attribute>
      <dia:attribute name="visible_comments">
        <dia:boolean val="false"/>
      </dia:attribute>
      <dia:attribute name="wrap_operations">
        <dia:boolean val="true"/>
      </dia:attribute>
      <dia:attribute name="wrap_after_char">
        <dia:int val="40"/>
      </dia:attribute>
      <dia:attribute name="comment_line_length">
        <dia:int val="40"/>
      </dia:attribute>
      <dia:attribute name="comment_tagging">
        <dia:boolean val="false"/>
      </dia:attribute>
      <dia:attribute name="line_color">
        <dia:color val="#000000"/>
      </dia:attribute>
      <dia:attribute name="fill_color">
        <dia:color val="#ffffff"/>
      </dia:attribute>
      <dia:attribute name="text_color">
        <dia:color val="#000000"/>
      </dia:attribute>
      <dia:attribute name="normal_font">
        <dia:font family="monospace" style="0" name="Courier"/>
      </dia:attribute>
      <dia:attribute name="abstract_font">
        <dia:font family="monospace" style="88" name="Courier-BoldOblique"/>
      </dia:attribute>
      <dia:attribute name="polymorphic_font">
        <dia:font family="monospace" style="8" name="Courier-Oblique"/>
      </dia:attribute>
      <dia:attribute name="classname_font">
        <dia:font family="sans" style="80" name="Helvetica-Bold"/>
      </dia:attribute>
      <dia:attribute name="abstract_classname_font">
        <dia:font family="sans" style="88" name="Helvetica-BoldOblique"/>
      </dia:attribute>
      <dia:attribute name="comment_font">
        <dia:font family="sans" style="8" name="Helvetica-Oblique"/>
      </dia:attribute>
      <dia:attribute name="normal_font_height">
        <dia:real val="0.80000000000000004"/>
      </dia:attribute>
      <dia:attribute name="polymorphic_font_height">
        <dia:real val="0.80000000000000004"/>
      </dia:attribute>
      <dia:attribute name="abstract_font_height">
        <dia:real val="0.80000000000000004"/>
      </dia:attribute>
      <dia:attribute name="classname_font_height">
        <dia:real val="1"/>
      </dia:attribute>
      <dia:attribute name="abstract_classname_font_height">
        <dia:real val="1"/>
      </dia:attribute>
      <dia:attribute name="comment_font_height">
        <dia:real val="0.69999999999999996"/>
      </dia:attribute>
      <dia:attribute name="attributes"/>
      <dia:attribute name="operations"/>
      <dia:attribute name="template">
        <dia:boolean val="false"/>
      </dia:attribute>
      <dia:attribute name="templates"/>
    </dia:object>
    <dia:object type="Standard - Line" version="0" id="O2">
      <dia:attribute name="obj_pos">
        <dia:point val="13.8,22.6"/>
      </dia:attribute>
      <dia:attribute name="obj_bb">
        <dia:rectangle val="13.7294,17.0259;18.9529,22.6706"/>
      </dia:attribute>
      <dia:attribute name="conn_endpoints">
        <dia:point val="13.8,22.6"/>
        <dia:point val="18.55,17.4"/>
      </dia:attribute>
      <dia:attribute name="numcp">
        <dia:int val="1"/>
      </dia:attribute>
      <dia:attribute name="end_arrow">
        <dia:enum val="2"/>
      </dia:attribute>
      <dia:attribute name="end_arrow_length">
        <dia:real val="0.5"/>
      </dia:attribute>
      <dia:attribute name="end_arrow_width">
        <dia:real val="0.5"/>
      </dia:attribute>
      <dia:connections>
        <dia:connection handle="0" to="O1" connection="1"/>
        <dia:connection handle="1" to="O0" connection="5"/>
      </dia:connections>
    </dia:object>
    <dia:object type="UML - Class" version="0" id="O3">
      <dia:attribute name="obj_pos">
        <dia:point val="23.75,24.05"/>
      </dia:attribute>
      <dia:attribute name="obj_bb">
        <dia:rectangle val="23.7,24;33.4,30.9"/>
      </dia:attribute>
      <dia:attribute name="elem_corner">
        <dia:point val="23.75,24.05"/>
      </dia:attribute>
      <dia:attribute name="elem_width">
        <dia:real val="9.5999999999999996"/>
      </dia:attribute>
      <dia:attribute name="elem_height">
        <dia:real val="6.8000000000000007"/>
      </dia:attribute>
      <dia:attribute name="name">
        <dia:string>#ACB#</dia:string>
      </dia:attribute>
      <dia:attribute name="stereotype">
        <dia:string>#CompMethod#</dia:string>
      </dia:attribute>
      <dia:attribute name="comment">
        <dia:string>##</dia:string>
      </dia:attribute>
      <dia:attribute name="abstract">
        <dia:boolean val="false"/>
      </dia:attribute>
      <dia:attribute name="suppress_attributes">
        <dia:boolean val="false"/>
      </dia:attribute>
      <dia:attribute name="suppress_operations">
        <dia:boolean val="false"/>
      </dia:attribute>
      <dia:attribute name="visible_attributes">
        <dia:boolean val="true"/>
      </dia:attribute>
      <dia:attribute name="visible_operations">
        <dia:boolean val="true"/>
      </dia:attribute>
      <dia:attribute name="visible_comments">
        <dia:boolean val="false"/>
      </dia:attribute>
      <dia:attribute name="wrap_operations">
        <dia:boolean val="true"/>
      </dia:attribute>
      <dia:attribute name="wrap_after_char">
        <dia:int val="40"/>
      </dia:attribute>
      <dia:attribute name="comment_line_length">
        <dia:int val="40"/>
      </dia:attribute>
      <dia:attribute name="comment_tagging">
        <dia:boolean val="false"/>
      </dia:attribute>
      <dia:attribute name="line_color">
        <dia:color val="#000000"/>
      </dia:attribute>
      <dia:attribute name="fill_color">
        <dia:color val="#ffffff"/>
      </dia:attribute>
      <dia:attribute name="text_color">
        <dia:color val="#000000"/>
      </dia:attribute>
      <dia:attribute name="normal_font">
        <dia:font family="monospace" style="0" name="Courier"/>
      </dia:attribute>
      <dia:attribute name="abstract_font">
        <dia:font family="monospace" style="88" name="Courier-BoldOblique"/>
      </dia:attribute>
      <dia:attribute name="polymorphic_font">
        <dia:font family="monospace" style="8" name="Courier-Oblique"/>
      </dia:attribute>
      <dia:attribute name="classname_font">
        <dia:font family="sans" style="80" name="Helvetica-Bold"/>
      </dia:attribute>
      <dia:attribute name="abstract_classname_font">
        <dia:font family="sans" style="88" name="Helvetica-BoldOblique"/>
      </dia:attribute>
      <dia:attribute name="comment_font">
        <dia:font family="sans" style="8" name="Helvetica-Oblique"/>
      </dia:attribute>
      <dia:attribute name="normal_font_height">
        <dia:real val="0.80000000000000004"/>
      </dia:attribute>
      <dia:attribute name="polymorphic_font_height">
        <dia:real val="0.80000000000000004"/>
      </dia:attribute>
      <dia:attribute name="abstract_font_height">
        <dia:real val="0.80000000000000004"/>
      </dia:attribute>
      <dia:attribute name="classname_font_height">
        <dia:real val="1"/>
      </dia:attribute>
      <dia:attribute name="abstract_classname_font_height">
        <dia:real val="1"/>
      </dia:attribute>
      <dia:attribute name="comment_font_height">
        <dia:real val="0.69999999999999996"/>
      </dia:attribute>
      <dia:attribute name="attributes">
        <dia:composite type="umlattribute">
          <dia:attribute name="name">
            <dia:string>#in_original#</dia:string>
          </dia:attribute>
          <dia:attribute name="type">
            <dia:string>#IOReader&amp;#</dia:string>
          </dia:attribute>
          <dia:attribute name="value">
            <dia:string>##</dia:string>
          </dia:attribute>
          <dia:attribute name="comment">
            <dia:string>##</dia:string>
          </dia:attribute>
          <dia:attribute name="visibility">
            <dia:enum val="0"/>
          </dia:attribute>
          <dia:attribute name="abstract">
            <dia:boolean val="false"/>
          </dia:attribute>
          <dia:attribute name="class_scope">
            <dia:boolean val="false"/>
          </dia:attribute>
        </dia:composite>
        <dia:composite type="umlattribute">
          <dia:attribute name="name">
            <dia:string>#out_comp#</dia:string>
          </dia:attribute>
          <dia:attribute name="type">
            <dia:string>#ACBCoder&amp;#</dia:string>
          </dia:attribute>
          <dia:attribute name="value">
            <dia:string>##</dia:string>
          </dia:attribute>
          <dia:attribute name="comment">
            <dia:string>##</dia:string>
          </dia:attribute>
          <dia:attribute name="visibility">
            <dia:enum val="0"/>
          </dia:attribute>
          <dia:attribute name="abstract">
            <dia:boolean val="false"/>
          </dia:attribute>
          <dia:attribute name="class_scope">
            <dia:boolean val="false"/>
          </dia:attribute>
        </dia:composite>
        <dia:composite type="umlattribute">
          <dia:attribute name="name">
            <dia:string>#in_comp#</dia:string>
          </dia:attribute>
          <dia:attribute name="type">
            <dia:string>#ACBCoder&amp;#</dia:string>
          </dia:attribute>
          <dia:attribute name="value">
            <dia:string>##</dia:string>
          </dia:attribute>
          <dia:attribute name="comment">
            <dia:string>##</dia:string>
          </dia:attribute>
          <dia:attribute name="visibility">
            <dia:enum val="0"/>
          </dia:attribute>
          <dia:attribute name="abstract">
            <dia:boolean val="false"/>
          </dia:attribute>
          <dia:attribute name="class_scope">
            <dia:boolean val="false"/>
          </dia:attribute>
        </dia:composite>
        <dia:composite type="umlattribute">
          <dia:attribute name="name">
            <dia:string>#out_decomp#</dia:string>
          </dia:attribute>
          <dia:attribute name="type">
            <dia:string>#IOWriter&amp;#</dia:string>
          </dia:attribute>
          <dia:attribute name="value">
            <dia:string>##</dia:string>
          </dia:attribute>
          <dia:attribute name="comment">
            <dia:string>##</dia:string>
          </dia:attribute>
          <dia:attribute name="visibility">
            <dia:enum val="0"/>
          </dia:attribute>
          <dia:attribute name="abstract">
            <dia:boolean val="false"/>
          </dia:attribute>
          <dia:attribute name="class_scope">
            <dia:boolean val="false"/>
          </dia:attribute>
        </dia:composite>
        <dia:composite type="umlattribute">
          <dia:attribute name="name">
            <dia:string>#max_context#</dia:string>
          </dia:attribute>
          <dia:attribute name="type">
            <dia:string>#unsigned int#</dia:string>
          </dia:attribute>
          <dia:attribute name="value">
            <dia:string>##</dia:string>
          </dia:attribute>
          <dia:attribute name="comment">
            <dia:string>##</dia:string>
          </dia:attribute>
          <dia:attribute name="visibility">
            <dia:enum val="0"/>
          </dia:attribute>
          <dia:attribute name="abstract">
            <dia:boolean val="false"/>
          </dia:attribute>
          <dia:attribute name="class_scope">
            <dia:boolean val="false"/>
          </dia:attribute>
        </dia:composite>
      </dia:attribute>
      <dia:attribute name="operations"/>
      <dia:attribute name="template">
        <dia:boolean val="false"/>
      </dia:attribute>
      <dia:attribute name="templates"/>
    </dia:object>
    <dia:object type="UML - Class" version="0" id="O4">
      <dia:attribute name="obj_pos">
        <dia:point val="37.125,23.655"/>
      </dia:attribute>
      <dia:attribute name="obj_bb">
        <dia:rectangle val="37.075,23.605;47.125,31.305"/>
      </dia:attribute>
      <dia:attribute name="elem_corner">
        <dia:point val="37.125,23.655"/>
      </dia:attribute>
      <dia:attribute name="elem_width">
        <dia:real val="9.9499999999999993"/>
      </dia:attribute>
      <dia:attribute name="elem_height">
        <dia:real val="7.6000000000000005"/>
      </dia:attribute>
      <dia:attribute name="name">
        <dia:string>#PPM#</dia:string>
      </dia:attribute>
      <dia:attribute name="stereotype">
        <dia:string>#CompMethod#</dia:string>
      </dia:attribute>
      <dia:attribute name="comment">
        <dia:string>##</dia:string>
      </dia:attribute>
      <dia:attribute name="abstract">
        <dia:boolean val="false"/>
      </dia:attribute>
      <dia:attribute name="suppress_attributes">
        <dia:boolean val="false"/>
      </dia:attribute>
      <dia:attribute name="suppress_operations">
        <dia:boolean val="false"/>
      </dia:attribute>
      <dia:attribute name="visible_attributes">
        <dia:boolean val="true"/>
      </dia:attribute>
      <dia:attribute name="visible_operations">
        <dia:boolean val="true"/>
      </dia:attribute>
      <dia:attribute name="visible_comments">
        <dia:boolean val="false"/>
      </dia:attribute>
      <dia:attribute name="wrap_operations">
        <dia:boolean val="true"/>
      </dia:attribute>
      <dia:attribute name="wrap_after_char">
        <dia:int val="40"/>
      </dia:attribute>
      <dia:attribute name="comment_line_length">
        <dia:int val="40"/>
      </dia:attribute>
      <dia:attribute name="comment_tagging">
        <dia:boolean val="false"/>
      </dia:attribute>
      <dia:attribute name="line_color">
        <dia:color val="#000000"/>
      </dia:attribute>
      <dia:attribute name="fill_color">
        <dia:color val="#ffffff"/>
      </dia:attribute>
      <dia:attribute name="text_color">
        <dia:color val="#000000"/>
      </dia:attribute>
      <dia:attribute name="normal_font">
        <dia:font family="monospace" style="0" name="Courier"/>
      </dia:attribute>
      <dia:attribute name="abstract_font">
        <dia:font family="monospace" style="88" name="Courier-BoldOblique"/>
      </dia:attribute>
      <dia:attribute name="polymorphic_font">
        <dia:font family="monospace" style="8" name="Courier-Oblique"/>
      </dia:attribute>
      <dia:attribute name="classname_font">
        <dia:font family="sans" style="80" name="Helvetica-Bold"/>
      </dia:attribute>
      <dia:attribute name="abstract_classname_font">
        <dia:font family="sans" style="88" name="Helvetica-BoldOblique"/>
      </dia:attribute>
      <dia:attribute name="comment_font">
        <dia:font family="sans" style="8" name="Helvetica-Oblique"/>
      </dia:attribute>
      <dia:attribute name="normal_font_height">
        <dia:real val="0.80000000000000004"/>
      </dia:attribute>
      <dia:attribute name="polymorphic_font_height">
        <dia:real val="0.80000000000000004"/>
      </dia:attribute>
      <dia:attribute name="abstract_font_height">
        <dia:real val="0.80000000000000004"/>
      </dia:attribute>
      <dia:attribute name="classname_font_height">
        <dia:real val="1"/>
      </dia:attribute>
      <dia:attribute name="abstract_classname_font_height">
        <dia:real val="1"/>
      </dia:attribute>
      <dia:attribute name="comment_font_height">
        <dia:real val="0.69999999999999996"/>
      </dia:attribute>
      <dia:attribute name="attributes">
        <dia:composite type="umlattribute">
          <dia:attribute name="name">
            <dia:string>#in_original#</dia:string>
          </dia:attribute>
          <dia:attribute name="type">
            <dia:string>#IOReader&amp;#</dia:string>
          </dia:attribute>
          <dia:attribute name="value">
            <dia:string>##</dia:string>
          </dia:attribute>
          <dia:attribute name="comment">
            <dia:string>#IOModule to read original uncompressed data from. This module is used in the compress() method.#</dia:string>
          </dia:attribute>
          <dia:attribute name="visibility">
            <dia:enum val="0"/>
          </dia:attribute>
          <dia:attribute name="abstract">
            <dia:boolean val="false"/>
          </dia:attribute>
          <dia:attribute name="class_scope">
            <dia:boolean val="false"/>
          </dia:attribute>
        </dia:composite>
        <dia:composite type="umlattribute">
          <dia:attribute name="name">
            <dia:string>#out_comp#</dia:string>
          </dia:attribute>
          <dia:attribute name="type">
            <dia:string>#ArithmeticCoder&amp;#</dia:string>
          </dia:attribute>
          <dia:attribute name="value">
            <dia:string>##</dia:string>
          </dia:attribute>
          <dia:attribute name="comment">
            <dia:string>#Output stream for the compress() method. Performs arithmetic encoding.#</dia:string>
          </dia:attribute>
          <dia:attribute name="visibility">
            <dia:enum val="0"/>
          </dia:attribute>
          <dia:attribute name="abstract">
            <dia:boolean val="false"/>
          </dia:attribute>
          <dia:attribute name="class_scope">
            <dia:boolean val="false"/>
          </dia:attribute>
        </dia:composite>
        <dia:composite type="umlattribute">
          <dia:attribute name="name">
            <dia:string>#in_comp#</dia:string>
          </dia:attribute>
          <dia:attribute name="type">
            <dia:string>#ArithmeticCoder&amp;#</dia:string>
          </dia:attribute>
          <dia:attribute name="value">
            <dia:string>##</dia:string>
          </dia:attribute>
          <dia:attribute name="comment">
            <dia:string>#Input stream for the decompress() method. Performs arithmetic decoding.#</dia:string>
          </dia:attribute>
          <dia:attribute name="visibility">
            <dia:enum val="0"/>
          </dia:attribute>
          <dia:attribute name="abstract">
            <dia:boolean val="false"/>
          </dia:attribute>
          <dia:attribute name="class_scope">
            <dia:boolean val="false"/>
          </dia:attribute>
        </dia:composite>
        <dia:composite type="umlattribute">
          <dia:attribute name="name">
            <dia:string>#out_decomp#</dia:string>
          </dia:attribute>
          <dia:attribute name="type">
            <dia:string>#IOWriter&amp;#</dia:string>
          </dia:attribute>
          <dia:attribute name="value">
            <dia:string>##</dia:string>
          </dia:attribute>
          <dia:attribute name="comment">
            <dia:string>#Output stream for uncompressed data. This module is used in the decompress() method.#</dia:string>
          </dia:attribute>
          <dia:attribute name="visibility">
            <dia:enum val="0"/>
          </dia:attribute>
          <dia:attribute name="abstract">
            <dia:boolean val="false"/>
          </dia:attribute>
          <dia:attribute name="class_scope">
            <dia:boolean val="false"/>
          </dia:attribute>
        </dia:composite>
        <dia:composite type="umlattribute">
          <dia:attribute name="name">
            <dia:string>#max_context#</dia:string>
          </dia:attribute>
          <dia:attribute name="type">
            <dia:string>#unsigned int#</dia:string>
          </dia:attribute>
          <dia:attribute name="value">
            <dia:string>##</dia:string>
          </dia:attribute>
          <dia:attribute name="comment">
            <dia:string>##</dia:string>
          </dia:attribute>
          <dia:attribute name="visibility">
            <dia:enum val="0"/>
          </dia:attribute>
          <dia:attribute name="abstract">
            <dia:boolean val="false"/>
          </dia:attribute>
          <dia:attribute name="class_scope">
            <dia:boolean val="false"/>
          </dia:attribute>
        </dia:composite>
        <dia:composite type="umlattribute">
          <dia:attribute name="name">
            <dia:string>#prob_tables#</dia:string>
          </dia:attribute>
          <dia:attribute name="type">
            <dia:string>#ProbTree&amp;#</dia:string>
          </dia:attribute>
          <dia:attribute name="value">
            <dia:string>##</dia:string>
          </dia:attribute>
          <dia:attribute name="comment">
            <dia:string>##</dia:string>
          </dia:attribute>
          <dia:attribute name="visibility">
            <dia:enum val="0"/>
          </dia:attribute>
          <dia:attribute name="abstract">
            <dia:boolean val="false"/>
          </dia:attribute>
          <dia:attribute name="class_scope">
            <dia:boolean val="false"/>
          </dia:attribute>
        </dia:composite>
      </dia:attribute>
      <dia:attribute name="operations"/>
      <dia:attribute name="template">
        <dia:boolean val="false"/>
      </dia:attribute>
      <dia:attribute name="templates"/>
    </dia:object>
    <dia:object type="Standard - Line" version="0" id="O5">
      <dia:attribute name="obj_pos">
        <dia:point val="28.55,24.05"/>
      </dia:attribute>
      <dia:attribute name="obj_bb">
        <dia:rectangle val="28.4925,17.2691;30.1515,24.1075"/>
      </dia:attribute>
      <dia:attribute name="conn_endpoints">
        <dia:point val="28.55,24.05"/>
        <dia:point val="29.65,17.4"/>
      </dia:attribute>
      <dia:attribute name="numcp">
        <dia:int val="1"/>
      </dia:attribute>
      <dia:attribute name="end_arrow">
        <dia:enum val="2"/>
      </dia:attribute>
      <dia:attribute name="end_arrow_length">
        <dia:real val="0.5"/>
      </dia:attribute>
      <dia:attribute name="end_arrow_width">
        <dia:real val="0.5"/>
      </dia:attribute>
      <dia:connections>
        <dia:connection handle="0" to="O3" connection="1"/>
        <dia:connection handle="1" to="O0" connection="6"/>
      </dia:connections>
    </dia:object>
    <dia:object type="Standard - Line" version="0" id="O6">
      <dia:attribute name="obj_pos">
        <dia:point val="42.1,23.655"/>
      </dia:attribute>
      <dia:attribute name="obj_bb">
        <dia:rectangle val="40.2507,17.2456;42.1594,23.7144"/>
      </dia:attribute>
      <dia:attribute name="conn_endpoints">
        <dia:point val="42.1,23.655"/>
        <dia:point val="40.75,17.4"/>
      </dia:attribute>
      <dia:attribute name="numcp">
        <dia:int val="1"/>
      </dia:attribute>
      <dia:attribute name="end_arrow">
        <dia:enum val="2"/>
      </dia:attribute>
      <dia:attribute name="end_arrow_length">
        <dia:real val="0.5"/>
      </dia:attribute>
      <dia:attribute name="end_arrow_width">
        <dia:real val="0.5"/>
      </dia:attribute>
      <dia:connections>
        <dia:connection handle="0" to="O4" connection="1"/>
        <dia:connection handle="1" to="O0" connection="7"/>
      </dia:connections>
    </dia:object>
    <dia:object type="UML - Class" version="0" id="O7">
      <dia:attribute name="obj_pos">
        <dia:point val="50.1,27.45"/>
      </dia:attribute>
      <dia:attribute name="obj_bb">
        <dia:rectangle val="50.05,27.4;68.5,33.3"/>
      </dia:attribute>
      <dia:attribute name="elem_corner">
        <dia:point val="50.1,27.45"/>
      </dia:attribute>
      <dia:attribute name="elem_width">
        <dia:real val="18.350000000000001"/>
      </dia:attribute>
      <dia:attribute name="elem_height">
        <dia:real val="5.8000000000000007"/>
      </dia:attribute>
      <dia:attribute name="name">
        <dia:string>#ArithmeticCoder#</dia:string>
      </dia:attribute>
      <dia:attribute name="stereotype">
        <dia:string>##</dia:string>
      </dia:attribute>
      <dia:attribute name="comment">
        <dia:string>##</dia:string>
      </dia:attribute>
      <dia:attribute name="abstract">
        <dia:boolean val="false"/>
      </dia:attribute>
      <dia:attribute name="suppress_attributes">
        <dia:boolean val="false"/>
      </dia:attribute>
      <dia:attribute name="suppress_operations">
        <dia:boolean val="false"/>
      </dia:attribute>
      <dia:attribute name="visible_attributes">
        <dia:boolean val="true"/>
      </dia:attribute>
      <dia:attribute name="visible_operations">
        <dia:boolean val="true"/>
      </dia:attribute>
      <dia:attribute name="visible_comments">
        <dia:boolean val="false"/>
      </dia:attribute>
      <dia:attribute name="wrap_operations">
        <dia:boolean val="true"/>
      </dia:attribute>
      <dia:attribute name="wrap_after_char">
        <dia:int val="40"/>
      </dia:attribute>
      <dia:attribute name="comment_line_length">
        <dia:int val="40"/>
      </dia:attribute>
      <dia:attribute name="comment_tagging">
        <dia:boolean val="false"/>
      </dia:attribute>
      <dia:attribute name="line_color">
        <dia:color val="#000000"/>
      </dia:attribute>
      <dia:attribute name="fill_color">
        <dia:color val="#ffffff"/>
      </dia:attribute>
      <dia:attribute name="text_color">
        <dia:color val="#000000"/>
      </dia:attribute>
      <dia:attribute name="normal_font">
        <dia:font family="monospace" style="0" name="Courier"/>
      </dia:attribute>
      <dia:attribute name="abstract_font">
        <dia:font family="monospace" style="88" name="Courier-BoldOblique"/>
      </dia:attribute>
      <dia:attribute name="polymorphic_font">
        <dia:font family="monospace" style="8" name="Courier-Oblique"/>
      </dia:attribute>
      <dia:attribute name="classname_font">
        <dia:font family="sans" style="80" name="Helvetica-Bold"/>
      </dia:attribute>
      <dia:attribute name="abstract_classname_font">
        <dia:font family="sans" style="88" name="Helvetica-BoldOblique"/>
      </dia:attribute>
      <dia:attribute name="comment_font">
        <dia:font family="sans" style="8" name="Helvetica-Oblique"/>
      </dia:attribute>
      <dia:attribute name="normal_font_height">
        <dia:real val="0.80000000000000004"/>
      </dia:attribute>
      <dia:attribute name="polymorphic_font_height">
        <dia:real val="0.80000000000000004"/>
      </dia:attribute>
      <dia:attribute name="abstract_font_height">
        <dia:real val="0.80000000000000004"/>
      </dia:attribute>
      <dia:attribute name="classname_font_height">
        <dia:real val="1"/>
      </dia:attribute>
      <dia:attribute name="abstract_classname_font_height">
        <dia:real val="1"/>
      </dia:attribute>
      <dia:attribute name="comment_font_height">
        <dia:real val="0.69999999999999996"/>
      </dia:attribute>
      <dia:attribute name="attributes">
        <dia:composite type="umlattribute">
          <dia:attribute name="name">
            <dia:string>#io#</dia:string>
          </dia:attribute>
          <dia:attribute name="type">
            <dia:string>#IOModule&amp;#</dia:string>
          </dia:attribute>
          <dia:attribute name="value">
            <dia:string>##</dia:string>
          </dia:attribute>
          <dia:attribute name="comment">
            <dia:string>##</dia:string>
          </dia:attribute>
          <dia:attribute name="visibility">
            <dia:enum val="0"/>
          </dia:attribute>
          <dia:attribute name="abstract">
            <dia:boolean val="false"/>
          </dia:attribute>
          <dia:attribute name="class_scope">
            <dia:boolean val="false"/>
          </dia:attribute>
        </dia:composite>
      </dia:attribute>
      <dia:attribute name="operations">
        <dia:composite type="umloperation">
          <dia:attribute name="name">
            <dia:string>#encodeInterval#</dia:string>
          </dia:attribute>
          <dia:attribute name="stereotype">
            <dia:string>##</dia:string>
          </dia:attribute>
          <dia:attribute name="type">
            <dia:string>##</dia:string>
          </dia:attribute>
          <dia:attribute name="visibility">
            <dia:enum val="0"/>
          </dia:attribute>
          <dia:attribute name="comment">
            <dia:string>##</dia:string>
          </dia:attribute>
          <dia:attribute name="abstract">
            <dia:boolean val="false"/>
          </dia:attribute>
          <dia:attribute name="inheritance_type">
            <dia:enum val="2"/>
          </dia:attribute>
          <dia:attribute name="query">
            <dia:boolean val="false"/>
          </dia:attribute>
          <dia:attribute name="class_scope">
            <dia:boolean val="false"/>
          </dia:attribute>
          <dia:attribute name="parameters">
            <dia:composite type="umlparameter">
              <dia:attribute name="name">
                <dia:string>#low#</dia:string>
              </dia:attribute>
              <dia:attribute name="type">
                <dia:string>#unsigned int#</dia:string>
              </dia:attribute>
              <dia:attribute name="value">
                <dia:string>##</dia:string>
              </dia:attribute>
              <dia:attribute name="comment">
                <dia:string>##</dia:string>
              </dia:attribute>
              <dia:attribute name="kind">
                <dia:enum val="0"/>
              </dia:attribute>
            </dia:composite>
            <dia:composite type="umlparameter">
              <dia:attribute name="name">
                <dia:string>#high#</dia:string>
              </dia:attribute>
              <dia:attribute name="type">
                <dia:string>#unsigned int#</dia:string>
              </dia:attribute>
              <dia:attribute name="value">
                <dia:string>##</dia:string>
              </dia:attribute>
              <dia:attribute name="comment">
                <dia:string>##</dia:string>
              </dia:attribute>
              <dia:attribute name="kind">
                <dia:enum val="0"/>
              </dia:attribute>
            </dia:composite>
          </dia:attribute>
        </dia:composite>
        <dia:composite type="umloperation">
          <dia:attribute name="name">
            <dia:string>#decodeCharacter#</dia:string>
          </dia:attribute>
          <dia:attribute name="stereotype">
            <dia:string>##</dia:string>
          </dia:attribute>
          <dia:attribute name="type">
            <dia:string>#unsigned int#</dia:string>
          </dia:attribute>
          <dia:attribute name="visibility">
            <dia:enum val="0"/>
          </dia:attribute>
          <dia:attribute name="comment">
            <dia:string>##</dia:string>
          </dia:attribute>
          <dia:attribute name="abstract">
            <dia:boolean val="false"/>
          </dia:attribute>
          <dia:attribute name="inheritance_type">
            <dia:enum val="2"/>
          </dia:attribute>
          <dia:attribute name="query">
            <dia:boolean val="false"/>
          </dia:attribute>
          <dia:attribute name="class_scope">
            <dia:boolean val="false"/>
          </dia:attribute>
          <dia:attribute name="parameters">
            <dia:composite type="umlparameter">
              <dia:attribute name="name">
                <dia:string>#prob_table#</dia:string>
              </dia:attribute>
              <dia:attribute name="type">
                <dia:string>#table*#</dia:string>
              </dia:attribute>
              <dia:attribute name="value">
                <dia:string>##</dia:string>
              </dia:attribute>
              <dia:attribute name="comment">
                <dia:string>##</dia:string>
              </dia:attribute>
              <dia:attribute name="kind">
                <dia:enum val="0"/>
              </dia:attribute>
            </dia:composite>
          </dia:attribute>
        </dia:composite>
        <dia:composite type="umloperation">
          <dia:attribute name="name">
            <dia:string>#encodeEOF#</dia:string>
          </dia:attribute>
          <dia:attribute name="stereotype">
            <dia:string>##</dia:string>
          </dia:attribute>
          <dia:attribute name="type">
            <dia:string>##</dia:string>
          </dia:attribute>
          <dia:attribute name="visibility">
            <dia:enum val="0"/>
          </dia:attribute>
          <dia:attribute name="comment">
            <dia:string>#finalizes writing (all remaining bits are written to the IOModule and state variables are reset)#</dia:string>
          </dia:attribute>
          <dia:attribute name="abstract">
            <dia:boolean val="false"/>
          </dia:attribute>
          <dia:attribute name="inheritance_type">
            <dia:enum val="2"/>
          </dia:attribute>
          <dia:attribute name="query">
            <dia:boolean val="false"/>
          </dia:attribute>
          <dia:attribute name="class_scope">
            <dia:boolean val="false"/>
          </dia:attribute>
          <dia:attribute name="parameters"/>
        </dia:composite>
        <dia:composite type="umloperation">
          <dia:attribute name="name">
            <dia:string>#decodeEOF#</dia:string>
          </dia:attribute>
          <dia:attribute name="stereotype">
            <dia:string>##</dia:string>
          </dia:attribute>
          <dia:attribute name="type">
            <dia:string>##</dia:string>
          </dia:attribute>
          <dia:attribute name="visibility">
            <dia:enum val="0"/>
          </dia:attribute>
          <dia:attribute name="comment">
            <dia:string>#finalizes reading (all pending bits are ignored and state variables are reset)#</dia:string>
          </dia:attribute>
          <dia:attribute name="abstract">
            <dia:boolean val="false"/>
          </dia:attribute>
          <dia:attribute name="inheritance_type">
            <dia:enum val="2"/>
          </dia:attribute>
          <dia:attribute name="query">
            <dia:boolean val="false"/>
          </dia:attribute>
          <dia:attribute name="class_scope">
            <dia:boolean val="false"/>
          </dia:attribute>
          <dia:attribute name="parameters"/>
        </dia:composite>
      </dia:attribute>
      <dia:attribute name="template">
        <dia:boolean val="false"/>
      </dia:attribute>
      <dia:attribute name="templates"/>
    </dia:object>
    <dia:object type="Standard - Line" version="0" id="O8">
      <dia:attribute name="obj_pos">
        <dia:point val="50.1,28.15"/>
      </dia:attribute>
      <dia:attribute name="obj_bb">
        <dia:rectangle val="46.8713,26.6644;50.1631,28.2131"/>
      </dia:attribute>
      <dia:attribute name="conn_endpoints">
        <dia:point val="50.1,28.15"/>
        <dia:point val="47.075,27.155"/>
      </dia:attribute>
      <dia:attribute name="numcp">
        <dia:int val="1"/>
      </dia:attribute>
      <dia:attribute name="end_arrow">
        <dia:enum val="4"/>
      </dia:attribute>
      <dia:attribute name="end_arrow_length">
        <dia:real val="0.5"/>
      </dia:attribute>
      <dia:attribute name="end_arrow_width">
        <dia:real val="0.5"/>
      </dia:attribute>
      <dia:connections>
        <dia:connection handle="0" to="O7" connection="3"/>
        <dia:connection handle="1" to="O4" connection="11"/>
      </dia:connections>
    </dia:object>
    <dia:object type="UML - Class" version="0" id="O9">
      <dia:attribute name="obj_pos">
        <dia:point val="48.25,34.55"/>
      </dia:attribute>
      <dia:attribute name="obj_bb">
        <dia:rectangle val="48.2,34.5;52.5,36.8"/>
      </dia:attribute>
      <dia:attribute name="elem_corner">
        <dia:point val="48.25,34.55"/>
      </dia:attribute>
      <dia:attribute name="elem_width">
        <dia:real val="4.2000000000000002"/>
      </dia:attribute>
      <dia:attribute name="elem_height">
        <dia:real val="2.1999999999999997"/>
      </dia:attribute>
      <dia:attribute name="name">
        <dia:string>#ProbTree#</dia:string>
      </dia:attribute>
      <dia:attribute name="stereotype">
        <dia:string>##</dia:string>
      </dia:attribute>
      <dia:attribute name="comment">
        <dia:string>#Tree of probability tables (one table for each context)#</dia:string>
      </dia:attribute>
      <dia:attribute name="abstract">
        <dia:boolean val="false"/>
      </dia:attribute>
      <dia:attribute name="suppress_attributes">
        <dia:boolean val="false"/>
      </dia:attribute>
      <dia:attribute name="suppress_operations">
        <dia:boolean val="false"/>
      </dia:attribute>
      <dia:attribute name="visible_attributes">
        <dia:boolean val="true"/>
      </dia:attribute>
      <dia:attribute name="visible_operations">
        <dia:boolean val="true"/>
      </dia:attribute>
      <dia:attribute name="visible_comments">
        <dia:boolean val="false"/>
      </dia:attribute>
      <dia:attribute name="wrap_operations">
        <dia:boolean val="true"/>
      </dia:attribute>
      <dia:attribute name="wrap_after_char">
        <dia:int val="40"/>
      </dia:attribute>
      <dia:attribute name="comment_line_length">
        <dia:int val="40"/>
      </dia:attribute>
      <dia:attribute name="comment_tagging">
        <dia:boolean val="false"/>
      </dia:attribute>
      <dia:attribute name="line_color">
        <dia:color val="#000000"/>
      </dia:attribute>
      <dia:attribute name="fill_color">
        <dia:color val="#ffffff"/>
      </dia:attribute>
      <dia:attribute name="text_color">
        <dia:color val="#000000"/>
      </dia:attribute>
      <dia:attribute name="normal_font">
        <dia:font family="monospace" style="0" name="Courier"/>
      </dia:attribute>
      <dia:attribute name="abstract_font">
        <dia:font family="monospace" style="88" name="Courier-BoldOblique"/>
      </dia:attribute>
      <dia:attribute name="polymorphic_font">
        <dia:font family="monospace" style="8" name="Courier-Oblique"/>
      </dia:attribute>
      <dia:attribute name="classname_font">
        <dia:font family="sans" style="80" name="Helvetica-Bold"/>
      </dia:attribute>
      <dia:attribute name="abstract_classname_font">
        <dia:font family="sans" style="88" name="Helvetica-BoldOblique"/>
      </dia:attribute>
      <dia:attribute name="comment_font">
        <dia:font family="sans" style="8" name="Helvetica-Oblique"/>
      </dia:attribute>
      <dia:attribute name="normal_font_height">
        <dia:real val="0.80000000000000004"/>
      </dia:attribute>
      <dia:attribute name="polymorphic_font_height">
        <dia:real val="0.80000000000000004"/>
      </dia:attribute>
      <dia:attribute name="abstract_font_height">
        <dia:real val="0.80000000000000004"/>
      </dia:attribute>
      <dia:attribute name="classname_font_height">
        <dia:real val="1"/>
      </dia:attribute>
      <dia:attribute name="abstract_classname_font_height">
        <dia:real val="1"/>
      </dia:attribute>
      <dia:attribute name="comment_font_height">
        <dia:real val="0.69999999999999996"/>
      </dia:attribute>
      <dia:attribute name="attributes"/>
      <dia:attribute name="operations"/>
      <dia:attribute name="template">
        <dia:boolean val="false"/>
      </dia:attribute>
      <dia:attribute name="templates"/>
    </dia:object>
    <dia:object type="Standard - Line" version="0" id="O10">
      <dia:attribute name="obj_pos">
        <dia:point val="50.35,34.55"/>
      </dia:attribute>
      <dia:attribute name="obj_bb">
        <dia:rectangle val="46.6501,30.0079;50.4202,34.6202"/>
      </dia:attribute>
      <dia:attribute name="conn_endpoints">
        <dia:point val="50.35,34.55"/>
        <dia:point val="47.075,30.355"/>
      </dia:attribute>
      <dia:attribute name="numcp">
        <dia:int val="1"/>
      </dia:attribute>
      <dia:attribute name="end_arrow">
        <dia:enum val="4"/>
      </dia:attribute>
      <dia:attribute name="end_arrow_length">
        <dia:real val="0.5"/>
      </dia:attribute>
      <dia:attribute name="end_arrow_width">
        <dia:real val="0.5"/>
      </dia:attribute>
      <dia:connections>
        <dia:connection handle="0" to="O9" connection="1"/>
        <dia:connection handle="1" to="O4" connection="19"/>
      </dia:connections>
    </dia:object>
    <dia:object type="UML - Class" version="0" id="O11">
      <dia:attribute name="obj_pos">
        <dia:point val="26.95,33.3"/>
      </dia:attribute>
      <dia:attribute name="obj_bb">
        <dia:rectangle val="26.9,33.25;45,38.85"/>
      </dia:attribute>
      <dia:attribute name="elem_corner">
        <dia:point val="26.95,33.3"/>
      </dia:attribute>
      <dia:attribute name="elem_width">
        <dia:real val="18"/>
      </dia:attribute>
      <dia:attribute name="elem_height">
        <dia:real val="5.5"/>
      </dia:attribute>
      <dia:attribute name="name">
        <dia:string>#ACBCoder#</dia:string>
      </dia:attribute>
      <dia:attribute name="stereotype">
        <dia:string>##</dia:string>
      </dia:attribute>
      <dia:attribute name="comment">
        <dia:string>##</dia:string>
      </dia:attribute>
      <dia:attribute name="abstract">
        <dia:boolean val="false"/>
      </dia:attribute>
      <dia:attribute name="suppress_attributes">
        <dia:boolean val="false"/>
      </dia:attribute>
      <dia:attribute name="suppress_operations">
        <dia:boolean val="false"/>
      </dia:attribute>
      <dia:attribute name="visible_attributes">
        <dia:boolean val="true"/>
      </dia:attribute>
      <dia:attribute name="visible_operations">
        <dia:boolean val="true"/>
      </dia:attribute>
      <dia:attribute name="visible_comments">
        <dia:boolean val="false"/>
      </dia:attribute>
      <dia:attribute name="wrap_operations">
        <dia:boolean val="true"/>
      </dia:attribute>
      <dia:attribute name="wrap_after_char">
        <dia:int val="40"/>
      </dia:attribute>
      <dia:attribute name="comment_line_length">
        <dia:int val="40"/>
      </dia:attribute>
      <dia:attribute name="comment_tagging">
        <dia:boolean val="false"/>
      </dia:attribute>
      <dia:attribute name="line_color">
        <dia:color val="#000000"/>
      </dia:attribute>
      <dia:attribute name="fill_color">
        <dia:color val="#ffffff"/>
      </dia:attribute>
      <dia:attribute name="text_color">
        <dia:color val="#000000"/>
      </dia:attribute>
      <dia:attribute name="normal_font">
        <dia:font family="monospace" style="0" name="Courier"/>
      </dia:attribute>
      <dia:attribute name="abstract_font">
        <dia:font family="monospace" style="88" name="Courier-BoldOblique"/>
      </dia:attribute>
      <dia:attribute name="polymorphic_font">
        <dia:font family="monospace" style="8" name="Courier-Oblique"/>
      </dia:attribute>
      <dia:attribute name="classname_font">
        <dia:font family="sans" style="80" name="Helvetica-Bold"/>
      </dia:attribute>
      <dia:attribute name="abstract_classname_font">
        <dia:font family="sans" style="88" name="Helvetica-BoldOblique"/>
      </dia:attribute>
      <dia:attribute name="comment_font">
        <dia:font family="sans" style="8" name="Helvetica-Oblique"/>
      </dia:attribute>
      <dia:attribute name="normal_font_height">
        <dia:real val="0.80000000000000004"/>
      </dia:attribute>
      <dia:attribute name="polymorphic_font_height">
        <dia:real val="0.80000000000000004"/>
      </dia:attribute>
      <dia:attribute name="abstract_font_height">
        <dia:real val="0.80000000000000004"/>
      </dia:attribute>
      <dia:attribute name="classname_font_height">
        <dia:real val="1"/>
      </dia:attribute>
      <dia:attribute name="abstract_classname_font_height">
        <dia:real val="1"/>
      </dia:attribute>
      <dia:attribute name="comment_font_height">
        <dia:real val="0.69999999999999996"/>
      </dia:attribute>
      <dia:attribute name="attributes"/>
      <dia:attribute name="operations">
        <dia:composite type="umloperation">
          <dia:attribute name="name">
            <dia:string>#encodeTriplet#</dia:string>
          </dia:attribute>
          <dia:attribute name="stereotype">
            <dia:string>##</dia:string>
          </dia:attribute>
          <dia:attribute name="type">
            <dia:string>##</dia:string>
          </dia:attribute>
          <dia:attribute name="visibility">
            <dia:enum val="0"/>
          </dia:attribute>
          <dia:attribute name="comment">
            <dia:string>##</dia:string>
          </dia:attribute>
          <dia:attribute name="abstract">
            <dia:boolean val="false"/>
          </dia:attribute>
          <dia:attribute name="inheritance_type">
            <dia:enum val="2"/>
          </dia:attribute>
          <dia:attribute name="query">
            <dia:boolean val="false"/>
          </dia:attribute>
          <dia:attribute name="class_scope">
            <dia:boolean val="false"/>
          </dia:attribute>
          <dia:attribute name="parameters">
            <dia:composite type="umlparameter">
              <dia:attribute name="name">
                <dia:string>#distance#</dia:string>
              </dia:attribute>
              <dia:attribute name="type">
                <dia:string>#int#</dia:string>
              </dia:attribute>
              <dia:attribute name="value">
                <dia:string>##</dia:string>
              </dia:attribute>
              <dia:attribute name="comment">
                <dia:string>##</dia:string>
              </dia:attribute>
              <dia:attribute name="kind">
                <dia:enum val="0"/>
              </dia:attribute>
            </dia:composite>
            <dia:composite type="umlparameter">
              <dia:attribute name="name">
                <dia:string>#length#</dia:string>
              </dia:attribute>
              <dia:attribute name="type">
                <dia:string>#unsigned int#</dia:string>
              </dia:attribute>
              <dia:attribute name="value">
                <dia:string>##</dia:string>
              </dia:attribute>
              <dia:attribute name="comment">
                <dia:string>##</dia:string>
              </dia:attribute>
              <dia:attribute name="kind">
                <dia:enum val="0"/>
              </dia:attribute>
            </dia:composite>
            <dia:composite type="umlparameter">
              <dia:attribute name="name">
                <dia:string>#next_char#</dia:string>
              </dia:attribute>
              <dia:attribute name="type">
                <dia:string>#unsigned char#</dia:string>
              </dia:attribute>
              <dia:attribute name="value">
                <dia:string>##</dia:string>
              </dia:attribute>
              <dia:attribute name="comment">
                <dia:string>##</dia:string>
              </dia:attribute>
              <dia:attribute name="kind">
                <dia:enum val="0"/>
              </dia:attribute>
            </dia:composite>
          </dia:attribute>
        </dia:composite>
        <dia:composite type="umloperation">
          <dia:attribute name="name">
            <dia:string>#decodeTriplet#</dia:string>
          </dia:attribute>
          <dia:attribute name="stereotype">
            <dia:string>##</dia:string>
          </dia:attribute>
          <dia:attribute name="type">
            <dia:string>##</dia:string>
          </dia:attribute>
          <dia:attribute name="visibility">
            <dia:enum val="0"/>
          </dia:attribute>
          <dia:attribute name="comment">
            <dia:string>##</dia:string>
          </dia:attribute>
          <dia:attribute name="abstract">
            <dia:boolean val="false"/>
          </dia:attribute>
          <dia:attribute name="inheritance_type">
            <dia:enum val="2"/>
          </dia:attribute>
          <dia:attribute name="query">
            <dia:boolean val="false"/>
          </dia:attribute>
          <dia:attribute name="class_scope">
            <dia:boolean val="false"/>
          </dia:attribute>
          <dia:attribute name="parameters">
            <dia:composite type="umlparameter">
              <dia:attribute name="name">
                <dia:string>#distance#</dia:string>
              </dia:attribute>
              <dia:attribute name="type">
                <dia:string>#int*#</dia:string>
              </dia:attribute>
              <dia:attribute name="value">
                <dia:string>##</dia:string>
              </dia:attribute>
              <dia:attribute name="comment">
                <dia:string>##</dia:string>
              </dia:attribute>
              <dia:attribute name="kind">
                <dia:enum val="0"/>
              </dia:attribute>
            </dia:composite>
            <dia:composite type="umlparameter">
              <dia:attribute name="name">
                <dia:string>#length#</dia:string>
              </dia:attribute>
              <dia:attribute name="type">
                <dia:string>#unsigned int*#</dia:string>
              </dia:attribute>
              <dia:attribute name="value">
                <dia:string>##</dia:string>
              </dia:attribute>
              <dia:attribute name="comment">
                <dia:string>##</dia:string>
              </dia:attribute>
              <dia:attribute name="kind">
                <dia:enum val="0"/>
              </dia:attribute>
            </dia:composite>
            <dia:composite type="umlparameter">
              <dia:attribute name="name">
                <dia:string>#next_char#</dia:string>
              </dia:attribute>
              <dia:attribute name="type">
                <dia:string>#unsigned char*#</dia:string>
              </dia:attribute>
              <dia:attribute name="value">
                <dia:string>##</dia:string>
              </dia:attribute>
              <dia:attribute name="comment">
                <dia:string>##</dia:string>
              </dia:attribute>
              <dia:attribute name="kind">
                <dia:enum val="0"/>
              </dia:attribute>
            </dia:composite>
          </dia:attribute>
        </dia:composite>
        <dia:composite type="umloperation">
          <dia:attribute name="name">
            <dia:string>#encodeEOF#</dia:string>
          </dia:attribute>
          <dia:attribute name="stereotype">
            <dia:string>##</dia:string>
          </dia:attribute>
          <dia:attribute name="type">
            <dia:string>##</dia:string>
          </dia:attribute>
          <dia:attribute name="visibility">
            <dia:enum val="0"/>
          </dia:attribute>
          <dia:attribute name="comment">
            <dia:string>#flush the output stream#</dia:string>
          </dia:attribute>
          <dia:attribute name="abstract">
            <dia:boolean val="false"/>
          </dia:attribute>
          <dia:attribute name="inheritance_type">
            <dia:enum val="2"/>
          </dia:attribute>
          <dia:attribute name="query">
            <dia:boolean val="false"/>
          </dia:attribute>
          <dia:attribute name="class_scope">
            <dia:boolean val="false"/>
          </dia:attribute>
          <dia:attribute name="parameters"/>
        </dia:composite>
      </dia:attribute>
      <dia:attribute name="template">
        <dia:boolean val="false"/>
      </dia:attribute>
      <dia:attribute name="templates"/>
    </dia:object>
    <dia:object type="Standard - Line" version="0" id="O12">
      <dia:attribute name="obj_pos">
        <dia:point val="35.0047,33.2504"/>
      </dia:attribute>
      <dia:attribute name="obj_bb">
        <dia:rectangle val="32.8603,28.1427;35.0681,33.3138"/>
      </dia:attribute>
      <dia:attribute name="conn_endpoints">
        <dia:point val="35.0047,33.2504"/>
        <dia:point val="33.35,28.35"/>
      </dia:attribute>
      <dia:attribute name="numcp">
        <dia:int val="1"/>
      </dia:attribute>
      <dia:attribute name="end_arrow">
        <dia:enum val="4"/>
      </dia:attribute>
      <dia:attribute name="end_arrow_length">
        <dia:real val="0.5"/>
      </dia:attribute>
      <dia:attribute name="end_arrow_width">
        <dia:real val="0.5"/>
      </dia:attribute>
      <dia:connections>
        <dia:connection handle="0" to="O11" connection="14"/>
        <dia:connection handle="1" to="O3" connection="13"/>
      </dia:connections>
    </dia:object>
    <dia:object type="UML - Class" version="0" id="O13">
      <dia:attribute name="obj_pos">
        <dia:point val="6.1,28.15"/>
      </dia:attribute>
      <dia:attribute name="obj_bb">
        <dia:rectangle val="6.05,28.1;12.3,30.4"/>
      </dia:attribute>
      <dia:attribute name="elem_corner">
        <dia:point val="6.1,28.15"/>
      </dia:attribute>
      <dia:attribute name="elem_width">
        <dia:real val="6.1500000000000004"/>
      </dia:attribute>
      <dia:attribute name="elem_height">
        <dia:real val="2.1999999999999997"/>
      </dia:attribute>
      <dia:attribute name="name">
        <dia:string>#Antidictionary#</dia:string>
      </dia:attribute>
      <dia:attribute name="stereotype">
        <dia:string>##</dia:string>
      </dia:attribute>
      <dia:attribute name="comment">
        <dia:string>##</dia:string>
      </dia:attribute>
      <dia:attribute name="abstract">
        <dia:boolean val="false"/>
      </dia:attribute>
      <dia:attribute name="suppress_attributes">
        <dia:boolean val="false"/>
      </dia:attribute>
      <dia:attribute name="suppress_operations">
        <dia:boolean val="false"/>
      </dia:attribute>
      <dia:attribute name="visible_attributes">
        <dia:boolean val="true"/>
      </dia:attribute>
      <dia:attribute name="visible_operations">
        <dia:boolean val="true"/>
      </dia:attribute>
      <dia:attribute name="visible_comments">
        <dia:boolean val="false"/>
      </dia:attribute>
      <dia:attribute name="wrap_operations">
        <dia:boolean val="true"/>
      </dia:attribute>
      <dia:attribute name="wrap_after_char">
        <dia:int val="40"/>
      </dia:attribute>
      <dia:attribute name="comment_line_length">
        <dia:int val="40"/>
      </dia:attribute>
      <dia:attribute name="comment_tagging">
        <dia:boolean val="false"/>
      </dia:attribute>
      <dia:attribute name="line_color">
        <dia:color val="#000000"/>
      </dia:attribute>
      <dia:attribute name="fill_color">
        <dia:color val="#ffffff"/>
      </dia:attribute>
      <dia:attribute name="text_color">
        <dia:color val="#000000"/>
      </dia:attribute>
      <dia:attribute name="normal_font">
        <dia:font family="monospace" style="0" name="Courier"/>
      </dia:attribute>
      <dia:attribute name="abstract_font">
        <dia:font family="monospace" style="88" name="Courier-BoldOblique"/>
      </dia:attribute>
      <dia:attribute name="polymorphic_font">
        <dia:font family="monospace" style="8" name="Courier-Oblique"/>
      </dia:attribute>
      <dia:attribute name="classname_font">
        <dia:font family="sans" style="80" name="Helvetica-Bold"/>
      </dia:attribute>
      <dia:attribute name="abstract_classname_font">
        <dia:font family="sans" style="88" name="Helvetica-BoldOblique"/>
      </dia:attribute>
      <dia:attribute name="comment_font">
        <dia:font family="sans" style="8" name="Helvetica-Oblique"/>
      </dia:attribute>
      <dia:attribute name="normal_font_height">
        <dia:real val="0.80000000000000004"/>
      </dia:attribute>
      <dia:attribute name="polymorphic_font_height">
        <dia:real val="0.80000000000000004"/>
      </dia:attribute>
      <dia:attribute name="abstract_font_height">
        <dia:real val="0.80000000000000004"/>
      </dia:attribute>
      <dia:attribute name="classname_font_height">
        <dia:real val="1"/>
      </dia:attribute>
      <dia:attribute name="abstract_classname_font_height">
        <dia:real val="1"/>
      </dia:attribute>
      <dia:attribute name="comment_font_height">
        <dia:real val="0.69999999999999996"/>
      </dia:attribute>
      <dia:attribute name="attributes"/>
      <dia:attribute name="operations"/>
      <dia:attribute name="template">
        <dia:boolean val="false"/>
      </dia:attribute>
      <dia:attribute name="templates"/>
    </dia:object>
    <dia:object type="UML - Class" version="0" id="O14">
      <dia:attribute name="obj_pos">
        <dia:point val="3.7,33.6"/>
      </dia:attribute>
      <dia:attribute name="obj_bb">
        <dia:rectangle val="3.65,33.55;9,35.85"/>
      </dia:attribute>
      <dia:attribute name="elem_corner">
        <dia:point val="3.7,33.6"/>
      </dia:attribute>
      <dia:attribute name="elem_width">
        <dia:real val="5.25"/>
      </dia:attribute>
      <dia:attribute name="elem_height">
        <dia:real val="2.1999999999999997"/>
      </dia:attribute>
      <dia:attribute name="name">
        <dia:string>#SuffixArray#</dia:string>
      </dia:attribute>
      <dia:attribute name="stereotype">
        <dia:string>##</dia:string>
      </dia:attribute>
      <dia:attribute name="comment">
        <dia:string>##</dia:string>
      </dia:attribute>
      <dia:attribute name="abstract">
        <dia:boolean val="false"/>
      </dia:attribute>
      <dia:attribute name="suppress_attributes">
        <dia:boolean val="false"/>
      </dia:attribute>
      <dia:attribute name="suppress_operations">
        <dia:boolean val="false"/>
      </dia:attribute>
      <dia:attribute name="visible_attributes">
        <dia:boolean val="true"/>
      </dia:attribute>
      <dia:attribute name="visible_operations">
        <dia:boolean val="true"/>
      </dia:attribute>
      <dia:attribute name="visible_comments">
        <dia:boolean val="false"/>
      </dia:attribute>
      <dia:attribute name="wrap_operations">
        <dia:boolean val="true"/>
      </dia:attribute>
      <dia:attribute name="wrap_after_char">
        <dia:int val="40"/>
      </dia:attribute>
      <dia:attribute name="comment_line_length">
        <dia:int val="40"/>
      </dia:attribute>
      <dia:attribute name="comment_tagging">
        <dia:boolean val="false"/>
      </dia:attribute>
      <dia:attribute name="line_color">
        <dia:color val="#000000"/>
      </dia:attribute>
      <dia:attribute name="fill_color">
        <dia:color val="#ffffff"/>
      </dia:attribute>
      <dia:attribute name="text_color">
        <dia:color val="#000000"/>
      </dia:attribute>
      <dia:attribute name="normal_font">
        <dia:font family="monospace" style="0" name="Courier"/>
      </dia:attribute>
      <dia:attribute name="abstract_font">
        <dia:font family="monospace" style="88" name="Courier-BoldOblique"/>
      </dia:attribute>
      <dia:attribute name="polymorphic_font">
        <dia:font family="monospace" style="8" name="Courier-Oblique"/>
      </dia:attribute>
      <dia:attribute name="classname_font">
        <dia:font family="sans" style="80" name="Helvetica-Bold"/>
      </dia:attribute>
      <dia:attribute name="abstract_classname_font">
        <dia:font family="sans" style="88" name="Helvetica-BoldOblique"/>
      </dia:attribute>
      <dia:attribute name="comment_font">
        <dia:font family="sans" style="8" name="Helvetica-Oblique"/>
      </dia:attribute>
      <dia:attribute name="normal_font_height">
        <dia:real val="0.80000000000000004"/>
      </dia:attribute>
      <dia:attribute name="polymorphic_font_height">
        <dia:real val="0.80000000000000004"/>
      </dia:attribute>
      <dia:attribute name="abstract_font_height">
        <dia:real val="0.80000000000000004"/>
      </dia:attribute>
      <dia:attribute name="classname_font_height">
        <dia:real val="1"/>
      </dia:attribute>
      <dia:attribute name="abstract_classname_font_height">
        <dia:real val="1"/>
      </dia:attribute>
      <dia:attribute name="comment_font_height">
        <dia:real val="0.69999999999999996"/>
      </dia:attribute>
      <dia:attribute name="attributes"/>
      <dia:attribute name="operations"/>
      <dia:attribute name="template">
        <dia:boolean val="false"/>
      </dia:attribute>
      <dia:attribute name="templates"/>
    </dia:object>
    <dia:object type="UML - Class" version="0" id="O15">
      <dia:attribute name="obj_pos">
        <dia:point val="10.7,33.7"/>
      </dia:attribute>
      <dia:attribute name="obj_bb">
        <dia:rectangle val="10.65,33.65;15.25,35.95"/>
      </dia:attribute>
      <dia:attribute name="elem_corner">
        <dia:point val="10.7,33.7"/>
      </dia:attribute>
      <dia:attribute name="elem_width">
        <dia:real val="4.5"/>
      </dia:attribute>
      <dia:attribute name="elem_height">
        <dia:real val="2.1999999999999997"/>
      </dia:attribute>
      <dia:attribute name="name">
        <dia:string>#SuffixTrie#</dia:string>
      </dia:attribute>
      <dia:attribute name="stereotype">
        <dia:string>##</dia:string>
      </dia:attribute>
      <dia:attribute name="comment">
        <dia:string>##</dia:string>
      </dia:attribute>
      <dia:attribute name="abstract">
        <dia:boolean val="false"/>
      </dia:attribute>
      <dia:attribute name="suppress_attributes">
        <dia:boolean val="false"/>
      </dia:attribute>
      <dia:attribute name="suppress_operations">
        <dia:boolean val="false"/>
      </dia:attribute>
      <dia:attribute name="visible_attributes">
        <dia:boolean val="true"/>
      </dia:attribute>
      <dia:attribute name="visible_operations">
        <dia:boolean val="true"/>
      </dia:attribute>
      <dia:attribute name="visible_comments">
        <dia:boolean val="false"/>
      </dia:attribute>
      <dia:attribute name="wrap_operations">
        <dia:boolean val="true"/>
      </dia:attribute>
      <dia:attribute name="wrap_after_char">
        <dia:int val="40"/>
      </dia:attribute>
      <dia:attribute name="comment_line_length">
        <dia:int val="40"/>
      </dia:attribute>
      <dia:attribute name="comment_tagging">
        <dia:boolean val="false"/>
      </dia:attribute>
      <dia:attribute name="line_color">
        <dia:color val="#000000"/>
      </dia:attribute>
      <dia:attribute name="fill_color">
        <dia:color val="#ffffff"/>
      </dia:attribute>
      <dia:attribute name="text_color">
        <dia:color val="#000000"/>
      </dia:attribute>
      <dia:attribute name="normal_font">
        <dia:font family="monospace" style="0" name="Courier"/>
      </dia:attribute>
      <dia:attribute name="abstract_font">
        <dia:font family="monospace" style="88" name="Courier-BoldOblique"/>
      </dia:attribute>
      <dia:attribute name="polymorphic_font">
        <dia:font family="monospace" style="8" name="Courier-Oblique"/>
      </dia:attribute>
      <dia:attribute name="classname_font">
        <dia:font family="sans" style="80" name="Helvetica-Bold"/>
      </dia:attribute>
      <dia:attribute name="abstract_classname_font">
        <dia:font family="sans" style="88" name="Helvetica-BoldOblique"/>
      </dia:attribute>
      <dia:attribute name="comment_font">
        <dia:font family="sans" style="8" name="Helvetica-Oblique"/>
      </dia:attribute>
      <dia:attribute name="normal_font_height">
        <dia:real val="0.80000000000000004"/>
      </dia:attribute>
      <dia:attribute name="polymorphic_font_height">
        <dia:real val="0.80000000000000004"/>
      </dia:attribute>
      <dia:attribute name="abstract_font_height">
        <dia:real val="0.80000000000000004"/>
      </dia:attribute>
      <dia:attribute name="classname_font_height">
        <dia:real val="1"/>
      </dia:attribute>
      <dia:attribute name="abstract_classname_font_height">
        <dia:real val="1"/>
      </dia:attribute>
      <dia:attribute name="comment_font_height">
        <dia:real val="0.69999999999999996"/>
      </dia:attribute>
      <dia:attribute name="attributes"/>
      <dia:attribute name="operations"/>
      <dia:attribute name="template">
        <dia:boolean val="false"/>
      </dia:attribute>
      <dia:attribute name="templates"/>
    </dia:object>
    <dia:object type="UML - Class" version="0" id="O16">
      <dia:attribute name="obj_pos">
        <dia:point val="16.15,29"/>
      </dia:attribute>
      <dia:attribute name="obj_bb">
        <dia:rectangle val="16.1,28.95;20.85,31.25"/>
      </dia:attribute>
      <dia:attribute name="elem_corner">
        <dia:point val="16.15,29"/>
      </dia:attribute>
      <dia:attribute name="elem_width">
        <dia:real val="4.6500000000000004"/>
      </dia:attribute>
      <dia:attribute name="elem_height">
        <dia:real val="2.1999999999999997"/>
      </dia:attribute>
      <dia:attribute name="name">
        <dia:string>#FSMCoder#</dia:string>
      </dia:attribute>
      <dia:attribute name="stereotype">
        <dia:string>##</dia:string>
      </dia:attribute>
      <dia:attribute name="comment">
        <dia:string>##</dia:string>
      </dia:attribute>
      <dia:attribute name="abstract">
        <dia:boolean val="false"/>
      </dia:attribute>
      <dia:attribute name="suppress_attributes">
        <dia:boolean val="false"/>
      </dia:attribute>
      <dia:attribute name="suppress_operations">
        <dia:boolean val="false"/>
      </dia:attribute>
      <dia:attribute name="visible_attributes">
        <dia:boolean val="true"/>
      </dia:attribute>
      <dia:attribute name="visible_operations">
        <dia:boolean val="true"/>
      </dia:attribute>
      <dia:attribute name="visible_comments">
        <dia:boolean val="false"/>
      </dia:attribute>
      <dia:attribute name="wrap_operations">
        <dia:boolean val="true"/>
      </dia:attribute>
      <dia:attribute name="wrap_after_char">
        <dia:int val="40"/>
      </dia:attribute>
      <dia:attribute name="comment_line_length">
        <dia:int val="40"/>
      </dia:attribute>
      <dia:attribute name="comment_tagging">
        <dia:boolean val="false"/>
      </dia:attribute>
      <dia:attribute name="line_color">
        <dia:color val="#000000"/>
      </dia:attribute>
      <dia:attribute name="fill_color">
        <dia:color val="#ffffff"/>
      </dia:attribute>
      <dia:attribute name="text_color">
        <dia:color val="#000000"/>
      </dia:attribute>
      <dia:attribute name="normal_font">
        <dia:font family="monospace" style="0" name="Courier"/>
      </dia:attribute>
      <dia:attribute name="abstract_font">
        <dia:font family="monospace" style="88" name="Courier-BoldOblique"/>
      </dia:attribute>
      <dia:attribute name="polymorphic_font">
        <dia:font family="monospace" style="8" name="Courier-Oblique"/>
      </dia:attribute>
      <dia:attribute name="classname_font">
        <dia:font family="sans" style="80" name="Helvetica-Bold"/>
      </dia:attribute>
      <dia:attribute name="abstract_classname_font">
        <dia:font family="sans" style="88" name="Helvetica-BoldOblique"/>
      </dia:attribute>
      <dia:attribute name="comment_font">
        <dia:font family="sans" style="8" name="Helvetica-Oblique"/>
      </dia:attribute>
      <dia:attribute name="normal_font_height">
        <dia:real val="0.80000000000000004"/>
      </dia:attribute>
      <dia:attribute name="polymorphic_font_height">
        <dia:real val="0.80000000000000004"/>
      </dia:attribute>
      <dia:attribute name="abstract_font_height">
        <dia:real val="0.80000000000000004"/>
      </dia:attribute>
      <dia:attribute name="classname_font_height">
        <dia:real val="1"/>
      </dia:attribute>
      <dia:attribute name="abstract_classname_font_height">
        <dia:real val="1"/>
      </dia:attribute>
      <dia:attribute name="comment_font_height">
        <dia:real val="0.69999999999999996"/>
      </dia:attribute>
      <dia:attribute name="attributes"/>
      <dia:attribute name="operations"/>
      <dia:attribute name="template">
        <dia:boolean val="false"/>
      </dia:attribute>
      <dia:attribute name="templates"/>
    </dia:object>
    <dia:object type="Standard - Line" version="0" id="O17">
      <dia:attribute name="obj_pos">
        <dia:point val="9.175,28.15"/>
      </dia:attribute>
      <dia:attribute name="obj_bb">
        <dia:rectangle val="9.10707,25.138;14.0852,28.2179"/>
      </dia:attribute>
      <dia:attribute name="conn_endpoints">
        <dia:point val="9.175,28.15"/>
        <dia:point val="13.8,25.6"/>
      </dia:attribute>
      <dia:attribute name="numcp">
        <dia:int val="1"/>
      </dia:attribute>
      <dia:attribute name="end_arrow">
        <dia:enum val="4"/>
      </dia:attribute>
      <dia:attribute name="end_arrow_length">
        <dia:real val="0.5"/>
      </dia:attribute>
      <dia:attribute name="end_arrow_width">
        <dia:real val="0.5"/>
      </dia:attribute>
      <dia:connections>
        <dia:connection handle="0" to="O13" connection="1"/>
        <dia:connection handle="1" to="O1" connection="6"/>
      </dia:connections>
    </dia:object>
    <dia:object type="Standard - Line" version="0" id="O18">
      <dia:attribute name="obj_pos">
        <dia:point val="18.475,29"/>
      </dia:attribute>
      <dia:attribute name="obj_bb">
        <dia:rectangle val="16.014,23.4786;18.5393,29.0643"/>
      </dia:attribute>
      <dia:attribute name="conn_endpoints">
        <dia:point val="18.475,29"/>
        <dia:point val="16.5,23.7"/>
      </dia:attribute>
      <dia:attribute name="numcp">
        <dia:int val="1"/>
      </dia:attribute>
      <dia:attribute name="end_arrow">
        <dia:enum val="4"/>
      </dia:attribute>
      <dia:attribute name="end_arrow_length">
        <dia:real val="0.5"/>
      </dia:attribute>
      <dia:attribute name="end_arrow_width">
        <dia:real val="0.5"/>
      </dia:attribute>
      <dia:connections>
        <dia:connection handle="0" to="O16" connection="1"/>
        <dia:connection handle="1" to="O1" connection="4"/>
      </dia:connections>
    </dia:object>
    <dia:object type="Standard - Line" version="0" id="O19">
      <dia:attribute name="obj_pos">
        <dia:point val="6.325,33.6"/>
      </dia:attribute>
      <dia:attribute name="obj_bb">
        <dia:rectangle val="6.25444,29.9827;9.5839,33.6706"/>
      </dia:attribute>
      <dia:attribute name="conn_endpoints">
        <dia:point val="6.325,33.6"/>
        <dia:point val="9.175,30.35"/>
      </dia:attribute>
      <dia:attribute name="numcp">
        <dia:int val="1"/>
      </dia:attribute>
      <dia:attribute name="end_arrow">
        <dia:enum val="4"/>
      </dia:attribute>
      <dia:attribute name="end_arrow_length">
        <dia:real val="0.5"/>
      </dia:attribute>
      <dia:attribute name="end_arrow_width">
        <dia:real val="0.5"/>
      </dia:attribute>
      <dia:connections>
        <dia:connection handle="0" to="O14" connection="1"/>
        <dia:connection handle="1" to="O13" connection="6"/>
      </dia:connections>
    </dia:object>
    <dia:object type="Standard - Line" version="0" id="O20">
      <dia:attribute name="obj_pos">
        <dia:point val="12.95,33.7"/>
      </dia:attribute>
      <dia:attribute name="obj_bb">
        <dia:rectangle val="8.80573,29.9428;13.0206,33.7706"/>
      </dia:attribute>
      <dia:attribute name="conn_endpoints">
        <dia:point val="12.95,33.7"/>
        <dia:point val="9.175,30.35"/>
      </dia:attribute>
      <dia:attribute name="numcp">
        <dia:int val="1"/>
      </dia:attribute>
      <dia:attribute name="end_arrow">
        <dia:enum val="4"/>
      </dia:attribute>
      <dia:attribute name="end_arrow_length">
        <dia:real val="0.5"/>
      </dia:attribute>
      <dia:attribute name="end_arrow_width">
        <dia:real val="0.5"/>
      </dia:attribute>
      <dia:connections>
        <dia:connection handle="0" to="O15" connection="1"/>
        <dia:connection handle="1" to="O13" connection="6"/>
      </dia:connections>
    </dia:object>
    <dia:object type="UML - Class" version="0" id="O21">
      <dia:attribute name="obj_pos">
        <dia:point val="8,3.2"/>
      </dia:attribute>
      <dia:attribute name="obj_bb">
        <dia:rectangle val="7.95,3.15;22.2,9.05"/>
      </dia:attribute>
      <dia:attribute name="elem_corner">
        <dia:point val="8,3.2"/>
      </dia:attribute>
      <dia:attribute name="elem_width">
        <dia:real val="14.15"/>
      </dia:attribute>
      <dia:attribute name="elem_height">
        <dia:real val="5.7999999999999998"/>
      </dia:attribute>
      <dia:attribute name="name">
        <dia:string>#CompressionChain#</dia:string>
      </dia:attribute>
      <dia:attribute name="stereotype">
        <dia:string>##</dia:string>
      </dia:attribute>
      <dia:attribute name="comment">
        <dia:string>##</dia:string>
      </dia:attribute>
      <dia:attribute name="abstract">
        <dia:boolean val="false"/>
      </dia:attribute>
      <dia:attribute name="suppress_attributes">
        <dia:boolean val="false"/>
      </dia:attribute>
      <dia:attribute name="suppress_operations">
        <dia:boolean val="false"/>
      </dia:attribute>
      <dia:attribute name="visible_attributes">
        <dia:boolean val="true"/>
      </dia:attribute>
      <dia:attribute name="visible_operations">
        <dia:boolean val="true"/>
      </dia:attribute>
      <dia:attribute name="visible_comments">
        <dia:boolean val="false"/>
      </dia:attribute>
      <dia:attribute name="wrap_operations">
        <dia:boolean val="true"/>
      </dia:attribute>
      <dia:attribute name="wrap_after_char">
        <dia:int val="40"/>
      </dia:attribute>
      <dia:attribute name="comment_line_length">
        <dia:int val="40"/>
      </dia:attribute>
      <dia:attribute name="comment_tagging">
        <dia:boolean val="false"/>
      </dia:attribute>
      <dia:attribute name="line_color">
        <dia:color val="#000000"/>
      </dia:attribute>
      <dia:attribute name="fill_color">
        <dia:color val="#ffffff"/>
      </dia:attribute>
      <dia:attribute name="text_color">
        <dia:color val="#000000"/>
      </dia:attribute>
      <dia:attribute name="normal_font">
        <dia:font family="monospace" style="0" name="Courier"/>
      </dia:attribute>
      <dia:attribute name="abstract_font">
        <dia:font family="monospace" style="88" name="Courier-BoldOblique"/>
      </dia:attribute>
      <dia:attribute name="polymorphic_font">
        <dia:font family="monospace" style="8" name="Courier-Oblique"/>
      </dia:attribute>
      <dia:attribute name="classname_font">
        <dia:font family="sans" style="80" name="Helvetica-Bold"/>
      </dia:attribute>
      <dia:attribute name="abstract_classname_font">
        <dia:font family="sans" style="88" name="Helvetica-BoldOblique"/>
      </dia:attribute>
      <dia:attribute name="comment_font">
        <dia:font family="sans" style="8" name="Helvetica-Oblique"/>
      </dia:attribute>
      <dia:attribute name="normal_font_height">
        <dia:real val="0.80000000000000004"/>
      </dia:attribute>
      <dia:attribute name="polymorphic_font_height">
        <dia:real val="0.80000000000000004"/>
      </dia:attribute>
      <dia:attribute name="abstract_font_height">
        <dia:real val="0.80000000000000004"/>
      </dia:attribute>
      <dia:attribute name="classname_font_height">
        <dia:real val="1"/>
      </dia:attribute>
      <dia:attribute name="abstract_classname_font_height">
        <dia:real val="1"/>
      </dia:attribute>
      <dia:attribute name="comment_font_height">
        <dia:real val="0.69999999999999996"/>
      </dia:attribute>
      <dia:attribute name="attributes">
        <dia:composite type="umlattribute">
          <dia:attribute name="name">
            <dia:string>#chain_handle#</dia:string>
          </dia:attribute>
          <dia:attribute name="type">
            <dia:string>#unsigned int#</dia:string>
          </dia:attribute>
          <dia:attribute name="value">
            <dia:string>##</dia:string>
          </dia:attribute>
          <dia:attribute name="comment">
            <dia:string>##</dia:string>
          </dia:attribute>
          <dia:attribute name="visibility">
            <dia:enum val="0"/>
          </dia:attribute>
          <dia:attribute name="abstract">
            <dia:boolean val="false"/>
          </dia:attribute>
          <dia:attribute name="class_scope">
            <dia:boolean val="false"/>
          </dia:attribute>
        </dia:composite>
        <dia:composite type="umlattribute">
          <dia:attribute name="name">
            <dia:string>#comp_modules#</dia:string>
          </dia:attribute>
          <dia:attribute name="type">
            <dia:string>#llist&lt;unsigned int&gt;#</dia:string>
          </dia:attribute>
          <dia:attribute name="value">
            <dia:string>##</dia:string>
          </dia:attribute>
          <dia:attribute name="comment">
            <dia:string>##</dia:string>
          </dia:attribute>
          <dia:attribute name="visibility">
            <dia:enum val="0"/>
          </dia:attribute>
          <dia:attribute name="abstract">
            <dia:boolean val="false"/>
          </dia:attribute>
          <dia:attribute name="class_scope">
            <dia:boolean val="false"/>
          </dia:attribute>
        </dia:composite>
        <dia:composite type="umlattribute">
          <dia:attribute name="name">
            <dia:string>#io_modules#</dia:string>
          </dia:attribute>
          <dia:attribute name="type">
            <dia:string>#llist&lt;unsigned int&gt;#</dia:string>
          </dia:attribute>
          <dia:attribute name="value">
            <dia:string>##</dia:string>
          </dia:attribute>
          <dia:attribute name="comment">
            <dia:string>##</dia:string>
          </dia:attribute>
          <dia:attribute name="visibility">
            <dia:enum val="0"/>
          </dia:attribute>
          <dia:attribute name="abstract">
            <dia:boolean val="false"/>
          </dia:attribute>
          <dia:attribute name="class_scope">
            <dia:boolean val="false"/>
          </dia:attribute>
        </dia:composite>
      </dia:attribute>
      <dia:attribute name="operations">
        <dia:composite type="umloperation">
          <dia:attribute name="name">
            <dia:string>#addCompModule#</dia:string>
          </dia:attribute>
          <dia:attribute name="stereotype">
            <dia:string>##</dia:string>
          </dia:attribute>
          <dia:attribute name="type">
            <dia:string>##</dia:string>
          </dia:attribute>
          <dia:attribute name="visibility">
            <dia:enum val="0"/>
          </dia:attribute>
          <dia:attribute name="comment">
            <dia:string>##</dia:string>
          </dia:attribute>
          <dia:attribute name="abstract">
            <dia:boolean val="false"/>
          </dia:attribute>
          <dia:attribute name="inheritance_type">
            <dia:enum val="2"/>
          </dia:attribute>
          <dia:attribute name="query">
            <dia:boolean val="false"/>
          </dia:attribute>
          <dia:attribute name="class_scope">
            <dia:boolean val="false"/>
          </dia:attribute>
          <dia:attribute name="parameters">
            <dia:composite type="umlparameter">
              <dia:attribute name="name">
                <dia:string>#mod_handle#</dia:string>
              </dia:attribute>
              <dia:attribute name="type">
                <dia:string>#unsigned int#</dia:string>
              </dia:attribute>
              <dia:attribute name="value">
                <dia:string>##</dia:string>
              </dia:attribute>
              <dia:attribute name="comment">
                <dia:string>##</dia:string>
              </dia:attribute>
              <dia:attribute name="kind">
                <dia:enum val="0"/>
              </dia:attribute>
            </dia:composite>
          </dia:attribute>
        </dia:composite>
        <dia:composite type="umloperation">
          <dia:attribute name="name">
            <dia:string>#addIOModule#</dia:string>
          </dia:attribute>
          <dia:attribute name="stereotype">
            <dia:string>##</dia:string>
          </dia:attribute>
          <dia:attribute name="type">
            <dia:string>##</dia:string>
          </dia:attribute>
          <dia:attribute name="visibility">
            <dia:enum val="0"/>
          </dia:attribute>
          <dia:attribute name="comment">
            <dia:string>##</dia:string>
          </dia:attribute>
          <dia:attribute name="abstract">
            <dia:boolean val="false"/>
          </dia:attribute>
          <dia:attribute name="inheritance_type">
            <dia:enum val="2"/>
          </dia:attribute>
          <dia:attribute name="query">
            <dia:boolean val="false"/>
          </dia:attribute>
          <dia:attribute name="class_scope">
            <dia:boolean val="false"/>
          </dia:attribute>
          <dia:attribute name="parameters">
            <dia:composite type="umlparameter">
              <dia:attribute name="name">
                <dia:string>#mod_handle#</dia:string>
              </dia:attribute>
              <dia:attribute name="type">
                <dia:string>#unsigned int#</dia:string>
              </dia:attribute>
              <dia:attribute name="value">
                <dia:string>##</dia:string>
              </dia:attribute>
              <dia:attribute name="comment">
                <dia:string>##</dia:string>
              </dia:attribute>
              <dia:attribute name="kind">
                <dia:enum val="0"/>
              </dia:attribute>
            </dia:composite>
          </dia:attribute>
        </dia:composite>
      </dia:attribute>
      <dia:attribute name="template">
        <dia:boolean val="false"/>
      </dia:attribute>
      <dia:attribute name="templates"/>
    </dia:object>
  </dia:layer>
</dia:diagram>
